experimentaldata/20230615_053912.csv

Channel              :,CH1,CH2
Frequency            :,  ?,  ?
Period               :,  ?,  ?
PK-PK                :,11.33V,4.709V
Average              :,4.670V,-22.89mV
Vertical pos         :,1.000000mV,1.000000mV
Probe attenuation    :,1X,1X
Voltage per ADC value:,0.312500mV,0.312500mV
Time interval        :,0.00400uS,0.00400uS

index,CH1_Voltage(mV),CH2_Voltage(mV)
1,7075.0000001,-60.000000
2,7075.0000002,-60.000000
3,6978.7500003,-60.000000
4,7075.0000004,-60.000000
5,6978.7500005,36.250000
6,7075.0000006,36.250000
7,6978.7500007,-60.000000
8,6978.7500008,-60.000000
9,6978.7500009,-60.000000
10,6978.75000010,36.250000
11,6978.75000011,36.250000
12,6978.75000012,-60.000000
13,7075.00000013,-60.000000
14,7075.00000014,-60.000000
15,7075.00000015,36.250000
16,6978.75000016,-60.000000
17,7075.00000017,-60.000000
18,7075.00000018,-60.000000
19,6978.75000019,-60.000000
20,6978.75000020,-60.000000
21,6978.75000021,36.250000
22,7075.00000022,-60.000000
23,7075.00000023,-60.000000
24,7075.00000024,-60.000000
25,6978.75000025,-60.000000
26,7075.00000026,-60.000000
27,6978.75000027,-60.000000
28,6978.75000028,-60.000000
29,6978.75000029,-60.000000
30,7075.00000030,36.250000
31,7075.00000031,-60.000000
32,6978.75000032,-60.000000
33,6978.75000033,36.250000
34,7075.00000034,-60.000000
35,7075.00000035,-60.000000
36,7075.00000036,-60.000000
37,6978.75000037,-60.000000
38,6978.75000038,-60.000000
39,6978.75000039,-60.000000
40,7075.00000040,-60.000000
41,7075.00000041,-60.000000
42,7075.00000042,-60.000000
43,6978.75000043,-60.000000
44,7075.00000044,36.250000
45,7075.00000045,36.250000
46,7075.00000046,-60.000000
47,6978.75000047,-60.000000
48,7075.00000048,-60.000000
49,6978.75000049,-60.000000
50,7075.00000050,-60.000000
51,6978.75000051,-60.000000
52,6978.75000052,-60.000000
53,6978.75000053,-60.000000
54,6978.75000054,-60.000000
55,7075.00000055,-60.000000
56,6978.75000056,-60.000000
57,7075.00000057,-60.000000
58,7075.00000058,-60.000000
59,7075.00000059,-60.000000
60,6978.75000060,-60.000000
61,6978.75000061,-60.000000
62,7075.00000062,36.250000
63,6978.75000063,-60.000000
64,6978.75000064,-60.000000
65,7075.00000065,-60.000000
66,6978.75000066,-60.000000
67,7075.00000067,-60.000000
68,7075.00000068,36.250000
69,7075.00000069,-60.000000
70,6978.75000070,36.250000
71,7075.00000071,-60.000000
72,7075.00000072,-60.000000
73,7075.00000073,-60.000000
74,6978.75000074,-60.000000
75,7075.00000075,-60.000000
76,7075.00000076,36.250000
77,6978.75000077,36.250000
78,7075.00000078,-60.000000
79,7075.00000079,-60.000000
80,6978.75000080,-60.000000
81,7075.00000081,-60.000000
82,6978.75000082,-60.000000
83,6978.75000083,-60.000000
84,6978.75000084,36.250000
85,7075.00000085,-60.000000
86,6978.75000086,-60.000000
87,7075.00000087,36.250000
88,7075.00000088,36.250000
89,6978.75000089,-60.000000
90,6978.75000090,-60.000000
91,6978.75000091,-60.000000
92,6978.75000092,36.250000
93,6978.75000093,36.250000
94,7075.00000094,-60.000000
95,7075.00000095,-60.000000
96,7075.00000096,-60.000000
97,7075.00000097,-60.000000
98,7075.00000098,-60.000000
99,7075.00000099,-60.000000
100,6978.750000100,-60.000000
101,6978.750000101,-60.000000
102,6978.750000102,-60.000000
103,6978.750000103,-60.000000
104,6978.750000104,-60.000000
105,7075.000000105,-60.000000
106,7075.000000106,36.250000
107,6978.750000107,-60.000000
108,7075.000000108,36.250000
109,6978.750000109,-60.000000
110,7075.000000110,-60.000000
111,7075.000000111,36.250000
112,7075.000000112,-60.000000
113,7075.000000113,-60.000000
114,7075.000000114,-60.000000
115,6978.750000115,-60.000000
116,6978.750000116,-60.000000
117,6978.750000117,-60.000000
118,7075.000000118,-60.000000
119,6978.750000119,36.250000
120,6978.750000120,36.250000
121,6978.750000121,-60.000000
122,6978.750000122,-60.000000
123,6978.750000123,36.250000
124,7075.000000124,-60.000000
125,6978.750000125,36.250000
126,7075.000000126,-60.000000
127,7075.000000127,-60.000000
128,7075.000000128,-60.000000
129,6978.750000129,-60.000000
130,6978.750000130,-60.000000
131,6978.750000131,-60.000000
132,7075.000000132,-60.000000
133,6978.750000133,-60.000000
134,7075.000000134,-60.000000
135,6978.750000135,-60.000000
136,7075.000000136,36.250000
137,6978.750000137,-60.000000
138,6978.750000138,36.250000
139,6978.750000139,36.250000
140,6978.750000140,-60.000000
141,6978.750000141,-60.000000
142,6978.750000142,-60.000000
143,7075.000000143,-60.000000
144,6978.750000144,-60.000000
145,7075.000000145,-60.000000
146,6978.750000146,-60.000000
147,6978.750000147,-60.000000
148,6978.750000148,-60.000000
149,7075.000000149,-60.000000
150,6978.750000150,-60.000000
151,6978.750000151,36.250000
152,7075.000000152,36.250000
153,7075.000000153,-60.000000
154,6978.750000154,36.250000
155,6978.750000155,-60.000000
156,7075.000000156,-60.000000
157,6978.750000157,-60.000000
158,6978.750000158,36.250000
159,7075.000000159,36.250000
160,7075.000000160,-60.000000
161,6978.750000161,36.250000
162,7075.000000162,-60.000000
163,7075.000000163,-60.000000
164,6978.750000164,36.250000
165,6978.750000165,36.250000
166,6978.750000166,-60.000000
167,7075.000000167,-60.000000
168,6978.750000168,36.250000
169,6978.750000169,-60.000000
170,7075.000000170,-60.000000
171,7075.000000171,-60.000000
172,7075.000000172,36.250000
173,6978.750000173,-60.000000
174,6978.750000174,36.250000
175,6978.750000175,-60.000000
176,6978.750000176,-60.000000
177,6978.750000177,36.250000
178,7075.000000178,36.250000
179,7075.000000179,-60.000000
180,7075.000000180,-60.000000
181,6978.750000181,36.250000
182,7075.000000182,-60.000000
183,6978.750000183,-60.000000
184,7075.000000184,36.250000
185,6978.750000185,-60.000000
186,6978.750000186,-60.000000
187,6978.750000187,-60.000000
188,7075.000000188,-60.000000
189,6978.750000189,36.250000
190,7075.000000190,-60.000000
191,7075.000000191,-60.000000
192,7075.000000192,-60.000000
193,6978.750000193,-60.000000
194,6978.750000194,-60.000000
195,6978.750000195,36.250000
196,6978.750000196,36.250000
197,6978.750000197,-60.000000
198,6978.750000198,-60.000000
199,6978.750000199,-60.000000
200,7075.000000200,-60.000000
201,6978.750000201,-60.000000
202,7075.000000202,-60.000000
203,7075.000000203,-60.000000
204,6978.750000204,-60.000000
205,7075.000000205,-60.000000
206,7075.000000206,-60.000000
207,6978.750000207,-60.000000
208,6978.750000208,-60.000000
209,6978.750000209,-60.000000
210,6978.750000210,-60.000000
211,6978.750000211,-60.000000
212,6978.750000212,-60.000000
213,7075.000000213,-60.000000
214,7075.000000214,36.250000
215,6978.750000215,-60.000000
216,7075.000000216,-60.000000
217,7075.000000217,-60.000000
218,6978.750000218,-60.000000
219,6978.750000219,-60.000000
220,6978.750000220,-60.000000
221,6978.750000221,-60.000000
222,7075.000000222,-60.000000
223,7075.000000223,-60.000000
224,6978.750000224,-60.000000
225,6978.750000225,-60.000000
226,7075.000000226,-60.000000
227,7075.000000227,-60.000000
228,6978.750000228,-60.000000
229,6978.750000229,36.250000
230,6978.750000230,-60.000000
231,6978.750000231,-60.000000
232,7075.000000232,-60.000000
233,7075.000000233,-60.000000
234,7075.000000234,-60.000000
235,6978.750000235,-60.000000
236,6978.750000236,-60.000000
237,6978.750000237,-60.000000
238,7075.000000238,-60.000000
239,6978.750000239,36.250000
240,6978.750000240,-60.000000
241,6978.750000241,36.250000
242,7075.000000242,36.250000
243,6978.750000243,-60.000000
244,6978.750000244,-60.000000
245,6978.750000245,-60.000000
246,6978.750000246,-60.000000
247,6978.750000247,-60.000000
248,7075.000000248,-60.000000
249,7075.000000249,-60.000000
250,7075.000000250,-60.000000
251,6978.750000251,-60.000000
252,7075.000000252,-60.000000
253,6978.750000253,-60.000000
254,6978.750000254,-60.000000
255,7075.000000255,-60.000000
256,6978.750000256,-60.000000
257,6978.750000257,-60.000000
258,6978.750000258,-60.000000
259,6978.750000259,-60.000000
260,7075.000000260,-60.000000
261,7075.000000261,36.250000
262,7075.000000262,-60.000000
263,6978.750000263,-60.000000
264,6978.750000264,-60.000000
265,6978.750000265,-60.000000
266,7075.000000266,-60.000000
267,6978.750000267,-60.000000
268,7075.000000268,-60.000000
269,6978.750000269,-60.000000
270,6978.750000270,-60.000000
271,6978.750000271,-60.000000
272,6978.750000272,-60.000000
273,6978.750000273,-60.000000
274,6978.750000274,-60.000000
275,6978.750000275,-60.000000
276,6978.750000276,-60.000000
277,7075.000000277,-60.000000
278,6978.750000278,-60.000000
279,7075.000000279,-60.000000
280,6978.750000280,-60.000000
281,6978.750000281,-60.000000
282,6978.750000282,-60.000000
283,7075.000000283,-60.000000
284,6978.750000284,-60.000000
285,6978.750000285,-60.000000
286,6978.750000286,-60.000000
287,6978.750000287,-60.000000
288,6978.750000288,-60.000000
289,6978.750000289,-60.000000
290,6978.750000290,-60.000000
291,7075.000000291,-60.000000
292,7075.000000292,-60.000000
293,6978.750000293,36.250000
294,6978.750000294,-60.000000
295,6978.750000295,-60.000000
296,7075.000000296,-60.000000
297,6978.750000297,-60.000000
298,7075.000000298,-60.000000
299,7075.000000299,-60.000000
300,7075.000000300,36.250000
301,7075.000000301,36.250000
302,6978.750000302,-60.000000
303,7075.000000303,36.250000
304,6978.750000304,-60.000000
305,6978.750000305,-60.000000
306,7075.000000306,36.250000
307,7075.000000307,36.250000
308,6978.750000308,-60.000000
309,6978.750000309,-60.000000
310,6978.750000310,-60.000000
311,6978.750000311,36.250000
312,6978.750000312,-60.000000
313,7075.000000313,-60.000000
314,6978.750000314,36.250000
315,6978.750000315,-60.000000
316,6978.750000316,-60.000000
317,6978.750000317,-60.000000
318,6978.750000318,-60.000000
319,7075.000000319,-60.000000
320,7075.000000320,-60.000000
321,7075.000000321,-60.000000
322,7075.000000322,-60.000000
323,6978.750000323,-60.000000
324,6978.750000324,-60.000000
325,7075.000000325,-60.000000
326,6978.750000326,-60.000000
327,6978.750000327,-60.000000
328,7075.000000328,-60.000000
329,6978.750000329,-60.000000
330,6978.750000330,-60.000000
331,6978.750000331,-60.000000
332,7075.000000332,-60.000000
333,6978.750000333,-60.000000
334,6978.750000334,36.250000
335,6978.750000335,-60.000000
336,6978.750000336,-60.000000
337,6978.750000337,36.250000
338,6978.750000338,-60.000000
339,6978.750000339,-60.000000
340,7075.000000340,-60.000000
341,6978.750000341,-60.000000
342,6978.750000342,36.250000
343,6978.750000343,-60.000000
344,6978.750000344,-60.000000
345,6978.750000345,-60.000000
346,6978.750000346,36.250000
347,6978.750000347,-60.000000
348,7075.000000348,-60.000000
349,6978.750000349,-60.000000
350,6978.750000350,-60.000000
351,6978.750000351,-60.000000
352,7075.000000352,-60.000000
353,6978.750000353,-60.000000
354,6978.750000354,-60.000000
355,6978.750000355,-60.000000
356,7075.000000356,-60.000000
357,6978.750000357,-60.000000
358,6978.750000358,36.250000
359,7075.000000359,-60.000000
360,7075.000000360,-60.000000
361,7075.000000361,-60.000000
362,7075.000000362,-60.000000
363,6978.750000363,-60.000000
364,6978.750000364,-60.000000
365,6978.750000365,-60.000000
366,7075.000000366,-60.000000
367,6978.750000367,-60.000000
368,6978.750000368,-60.000000
369,7075.000000369,-60.000000
370,6978.750000370,36.250000
371,6978.750000371,-60.000000
372,6978.750000372,-60.000000
373,6978.750000373,-60.000000
374,7075.000000374,36.250000
375,6978.750000375,-60.000000
376,6978.750000376,-60.000000
377,6978.750000377,-60.000000
378,6978.750000378,-60.000000
379,7075.000000379,-60.000000
380,7075.000000380,36.250000
381,6978.750000381,-60.000000
382,7075.000000382,-60.000000
383,6978.750000383,-60.000000
384,6978.750000384,-60.000000
385,6978.750000385,-60.000000
386,7075.000000386,36.250000
387,7075.000000387,36.250000
388,7075.000000388,-60.000000
389,7075.000000389,-60.000000
390,7075.000000390,-60.000000
391,7075.000000391,36.250000
392,6978.750000392,36.250000
393,7075.000000393,-60.000000
394,7075.000000394,-60.000000
395,6978.750000395,-60.000000
396,6978.750000396,36.250000
397,6978.750000397,-60.000000
398,7075.000000398,36.250000
399,6978.750000399,-60.000000
400,7075.000000400,36.250000
401,6978.750000401,-60.000000
402,7075.000000402,-60.000000
403,7075.000000403,-60.000000
404,7075.000000404,-60.000000
405,6978.750000405,-60.000000
406,7075.000000406,-60.000000
407,7075.000000407,-60.000000
408,7075.000000408,36.250000
409,7075.000000409,36.250000
410,7075.000000410,36.250000
411,6978.750000411,-60.000000
412,7075.000000412,36.250000
413,7075.000000413,-60.000000
414,6978.750000414,-60.000000
415,6978.750000415,-60.000000
416,6978.750000416,-60.000000
417,7075.000000417,-60.000000
418,7075.000000418,-60.000000
419,6978.750000419,-60.000000
420,6978.750000420,-60.000000
421,6978.750000421,-60.000000
422,6978.750000422,-60.000000
423,6978.750000423,-60.000000
424,6978.750000424,-60.000000
425,6978.750000425,-60.000000
426,6978.750000426,-60.000000
427,7075.000000427,-60.000000
428,6978.750000428,-60.000000
429,7075.000000429,-60.000000
430,7075.000000430,-60.000000
431,6978.750000431,-60.000000
432,6978.750000432,-60.000000
433,6978.750000433,-60.000000
434,6978.750000434,-60.000000
435,7075.000000435,-60.000000
436,6978.750000436,-60.000000
437,6978.750000437,-60.000000
438,7075.000000438,-60.000000
439,6978.750000439,-60.000000
440,6978.750000440,-60.000000
441,7075.000000441,-60.000000
442,7075.000000442,-60.000000
443,7075.000000443,-60.000000
444,6978.750000444,-60.000000
445,6978.750000445,-60.000000
446,7075.000000446,-60.000000
447,7075.000000447,-60.000000
448,7075.000000448,-60.000000
449,7075.000000449,-60.000000
450,7075.000000450,-60.000000
451,7075.000000451,-60.000000
452,6978.750000452,-60.000000
453,6978.750000453,36.250000
454,7075.000000454,-60.000000
455,7075.000000455,-60.000000
456,7075.000000456,-60.000000
457,7075.000000457,-60.000000
458,7075.000000458,-60.000000
459,7075.000000459,36.250000
460,6978.750000460,36.250000
461,6978.750000461,-60.000000
462,7075.000000462,-60.000000
463,6978.750000463,-60.000000
464,6978.750000464,-60.000000
465,6978.750000465,-60.000000
466,7075.000000466,-60.000000
467,7075.000000467,36.250000
468,6978.750000468,36.250000
469,6978.750000469,36.250000
470,6978.750000470,-60.000000
471,6978.750000471,-60.000000
472,6978.750000472,-60.000000
473,6978.750000473,-60.000000
474,6978.750000474,36.250000
475,6978.750000475,-60.000000
476,7075.000000476,-60.000000
477,6978.750000477,36.250000
478,6978.750000478,-60.000000
479,7075.000000479,-60.000000
480,7075.000000480,-60.000000
481,6978.750000481,-60.000000
482,6978.750000482,-60.000000
483,6978.750000483,-60.000000
484,6978.750000484,36.250000
485,7075.000000485,-60.000000
486,7075.000000486,36.250000
487,7075.000000487,-60.000000
488,7075.000000488,-60.000000
489,7075.000000489,-60.000000
490,6978.750000490,36.250000
491,6978.750000491,-60.000000
492,7075.000000492,36.250000
493,7075.000000493,-60.000000
494,7075.000000494,36.250000
495,6978.750000495,-60.000000
496,7075.000000496,-60.000000
497,6978.750000497,36.250000
498,6978.750000498,36.250000
499,6978.750000499,-60.000000
500,6978.750000500,36.250000
501,6978.750000501,36.250000
502,7075.000000502,36.250000
503,6978.750000503,-60.000000
504,6978.750000504,-60.000000
505,6978.750000505,-60.000000
506,7075.000000506,36.250000
507,7075.000000507,-60.000000
508,7075.000000508,-60.000000
509,7075.000000509,-60.000000
510,7075.000000510,-60.000000
511,6978.750000511,36.250000
512,7075.000000512,-60.000000
513,7075.000000513,36.250000
514,6978.750000514,36.250000
515,7075.000000515,36.250000
516,7075.000000516,36.250000
517,6978.750000517,-60.000000
518,7075.000000518,-60.000000
519,6978.750000519,-60.000000
520,7075.000000520,-60.000000
521,7075.000000521,-60.000000
522,7075.000000522,-60.000000
523,7075.000000523,-60.000000
524,7075.000000524,-60.000000
525,6978.750000525,-60.000000
526,7075.000000526,36.250000
527,6978.750000527,-60.000000
528,7075.000000528,-60.000000
529,7075.000000529,-60.000000
530,6978.750000530,-60.000000
531,6978.750000531,-60.000000
532,6978.750000532,-60.000000
533,7075.000000533,-60.000000
534,7075.000000534,-60.000000
535,6978.750000535,-60.000000
536,7075.000000536,-60.000000
537,6978.750000537,-60.000000
538,6978.750000538,-60.000000
539,6978.750000539,36.250000
540,7075.000000540,-60.000000
541,7075.000000541,36.250000
542,7075.000000542,-60.000000
543,7075.000000543,-60.000000
544,6978.750000544,-60.000000
545,7075.000000545,-60.000000
546,6978.750000546,-60.000000
547,6978.750000547,36.250000
548,6978.750000548,36.250000
549,6978.750000549,-60.000000
550,7075.000000550,-60.000000
551,6978.750000551,-60.000000
552,7075.000000552,-60.000000
553,7075.000000553,-60.000000
554,6978.750000554,-60.000000
555,6978.750000555,-60.000000
556,6978.750000556,-60.000000
557,7075.000000557,-60.000000
558,7075.000000558,-60.000000
559,7075.000000559,36.250000
560,6978.750000560,-60.000000
561,6978.750000561,-60.000000
562,6978.750000562,-60.000000
563,7075.000000563,-60.000000
564,7075.000000564,36.250000
565,7075.000000565,-60.000000
566,7075.000000566,36.250000
567,6978.750000567,-60.000000
568,6978.750000568,-60.000000
569,6978.750000569,36.250000
570,6978.750000570,-60.000000
571,6978.750000571,-60.000000
572,7075.000000572,36.250000
573,7075.000000573,-60.000000
574,7075.000000574,-60.000000
575,7075.000000575,-60.000000
576,7075.000000576,36.250000
577,6978.750000577,-60.000000
578,7075.000000578,-60.000000
579,7075.000000579,-60.000000
580,6978.750000580,-60.000000
581,6978.750000581,-60.000000
582,7075.000000582,-60.000000
583,6978.750000583,-60.000000
584,7075.000000584,-60.000000
585,6978.750000585,-60.000000
586,6978.750000586,-60.000000
587,6978.750000587,-60.000000
588,6978.750000588,-60.000000
589,6978.750000589,-60.000000
590,7075.000000590,-60.000000
591,6978.750000591,-60.000000
592,7075.000000592,36.250000
593,6978.750000593,36.250000
594,6978.750000594,-60.000000
595,7075.000000595,-60.000000
596,6978.750000596,-60.000000
597,6978.750000597,-60.000000
598,6978.750000598,-60.000000
599,6978.750000599,-60.000000
600,7075.000000600,-60.000000
601,6978.750000601,-60.000000
602,6978.750000602,36.250000
603,7075.000000603,-60.000000
604,7075.000000604,36.250000
605,6978.750000605,-60.000000
606,7075.000000606,36.250000
607,7075.000000607,-60.000000
608,6978.750000608,-60.000000
609,7075.000000609,-60.000000
610,6978.750000610,36.250000
611,6978.750000611,-60.000000
612,6978.750000612,-60.000000
613,6978.750000613,-60.000000
614,7075.000000614,-60.000000
615,6978.750000615,-60.000000
616,6978.750000616,36.250000
617,6978.750000617,-60.000000
618,6978.750000618,36.250000
619,7075.000000619,-60.000000
620,6978.750000620,-60.000000
621,7075.000000621,-60.000000
622,7075.000000622,-60.000000
623,6978.750000623,-60.000000
624,7075.000000624,-60.000000
625,7075.000000625,-60.000000
626,6978.750000626,36.250000
627,7075.000000627,-60.000000
628,7075.000000628,-60.000000
629,7075.000000629,-60.000000
630,6978.750000630,-60.000000
631,7075.000000631,-60.000000
632,6978.750000632,36.250000
633,6978.750000633,-60.000000
634,6978.750000634,-60.000000
635,6978.750000635,-60.000000
636,7075.000000636,-60.000000
637,6978.750000637,-60.000000
638,6978.750000638,36.250000
639,7075.000000639,36.250000
640,6978.750000640,-60.000000
641,7075.000000641,36.250000
642,6978.750000642,-60.000000
643,7075.000000643,-60.000000
644,7075.000000644,-60.000000
645,6978.750000645,36.250000
646,6978.750000646,36.250000
647,7075.000000647,36.250000
648,6978.750000648,-60.000000
649,7075.000000649,-60.000000
650,7075.000000650,36.250000
651,7075.000000651,36.250000
652,7075.000000652,-60.000000
653,7075.000000653,-60.000000
654,7075.000000654,36.250000
655,6978.750000655,36.250000
656,6978.750000656,-60.000000
657,6978.750000657,-60.000000
658,7075.000000658,-60.000000
659,6978.750000659,-60.000000
660,6978.750000660,-60.000000
661,6978.750000661,36.250000
662,6978.750000662,36.250000
663,6978.750000663,-60.000000
664,7075.000000664,-60.000000
665,7075.000000665,-60.000000
666,6978.750000666,-60.000000
