experimentaldata/2kv_discharge.csv

Channel              :,CH1,CH2
Frequency            :,  ?,  ?
Period               :,  ?,  ?
PK-PK                :,1.550V,1.730V
Average              :,1.950V,-23.35mV
Vertical pos         :,1.000000mV,1.000000mV
Probe attenuation    :,1X,1X
Voltage per ADC value:,0.312500mV,0.312500mV
Time interval        :,0.00200uS,0.00200uS

index,CH1_Voltage(mV),CH2_Voltage(mV)
1,1941.2500001,-83.750000
2,1941.2500002,12.500000
3,1941.2500003,12.500000
4,1941.2500004,12.500000
5,1941.2500005,12.500000
6,1941.2500006,12.500000
7,1941.2500007,-83.750000
8,1941.2500008,-83.750000
9,1941.2500009,12.500000
10,1941.25000010,12.500000
11,1941.25000011,-83.750000
12,1941.25000012,12.500000
13,1941.25000013,12.500000
14,1941.25000014,12.500000
15,1941.25000015,12.500000
16,1941.25000016,12.500000
17,1941.25000017,-83.750000
18,1941.25000018,12.500000
19,1941.25000019,-83.750000
20,1941.25000020,12.500000
21,1941.25000021,12.500000
22,1941.25000022,12.500000
23,1941.25000023,12.500000
24,1941.25000024,12.500000
25,1941.25000025,12.500000
26,1941.25000026,12.500000
27,1941.25000027,-83.750000
28,1941.25000028,-83.750000
29,1941.25000029,12.500000
30,1941.25000030,-83.750000
31,1941.25000031,-83.750000
32,1941.25000032,-83.750000
33,1941.25000033,12.500000
34,1941.25000034,12.500000
35,1941.25000035,-83.750000
36,1941.25000036,12.500000
37,1941.25000037,12.500000
38,1941.25000038,12.500000
39,1941.25000039,12.500000
40,1941.25000040,12.500000
41,1941.25000041,12.500000
42,1941.25000042,-83.750000
43,1941.25000043,12.500000
44,1941.25000044,12.500000
45,1941.25000045,12.500000
46,1941.25000046,12.500000
47,1941.25000047,-83.750000
48,1941.25000048,12.500000
49,1941.25000049,-83.750000
50,1941.25000050,12.500000
51,1941.25000051,12.500000
52,1941.25000052,12.500000
53,1941.25000053,12.500000
54,1941.25000054,12.500000
55,1941.25000055,12.500000
56,1941.25000056,12.500000
57,1941.25000057,12.500000
58,1941.25000058,12.500000
59,1941.25000059,-83.750000
60,1941.25000060,12.500000
61,1941.25000061,-83.750000
62,1941.25000062,12.500000
63,1941.25000063,-83.750000
64,1941.25000064,12.500000
65,1941.25000065,12.500000
66,1941.25000066,12.500000
67,1941.25000067,12.500000
68,1941.25000068,12.500000
69,2037.50000069,12.500000
70,1941.25000070,-83.750000
71,1941.25000071,12.500000
72,1941.25000072,12.500000
73,1941.25000073,-83.750000
74,2037.50000074,12.500000
75,1941.25000075,12.500000
76,1941.25000076,12.500000
77,1941.25000077,12.500000
78,1941.25000078,12.500000
79,1941.25000079,-83.750000
80,1941.25000080,12.500000
81,1941.25000081,-83.750000
82,1941.25000082,12.500000
83,1941.25000083,-83.750000
84,1941.25000084,12.500000
85,1941.25000085,12.500000
86,1941.25000086,12.500000
87,1941.25000087,-83.750000
88,1941.25000088,12.500000
89,1941.25000089,12.500000
90,1941.25000090,12.500000
91,1941.25000091,12.500000
92,1941.25000092,12.500000
93,2037.50000093,12.500000
94,1941.25000094,12.500000
95,1941.25000095,12.500000
96,1941.25000096,12.500000
97,2037.50000097,12.500000
98,1941.25000098,12.500000
99,1941.25000099,-83.750000
100,1941.250000100,12.500000
101,1941.250000101,12.500000
102,1941.250000102,12.500000
103,1941.250000103,12.500000
104,1941.250000104,-83.750000
105,1941.250000105,12.500000
106,1941.250000106,12.500000
107,1941.250000107,12.500000
108,1941.250000108,12.500000
109,1941.250000109,-83.750000
110,1941.250000110,12.500000
111,1941.250000111,12.500000
112,1941.250000112,-83.750000
113,1941.250000113,12.500000
114,1941.250000114,12.500000
115,1941.250000115,12.500000
116,1941.250000116,12.500000
117,1941.250000117,12.500000
118,1941.250000118,12.500000
119,1941.250000119,-83.750000
120,1941.250000120,12.500000
121,1941.250000121,-83.750000
122,1941.250000122,12.500000
123,1941.250000123,-83.750000
124,1941.250000124,12.500000
125,1941.250000125,12.500000
126,1941.250000126,12.500000
127,1941.250000127,12.500000
128,1941.250000128,12.500000
129,2037.500000129,12.500000
130,1941.250000130,12.500000
131,1941.250000131,12.500000
132,1941.250000132,12.500000
133,1941.250000133,12.500000
134,1941.250000134,12.500000
135,1941.250000135,12.500000
136,1941.250000136,-83.750000
137,1941.250000137,12.500000
138,1941.250000138,12.500000
139,1941.250000139,12.500000
140,1941.250000140,12.500000
141,1941.250000141,12.500000
142,1941.250000142,12.500000
143,1941.250000143,-83.750000
144,1941.250000144,12.500000
145,1941.250000145,12.500000
146,1941.250000146,12.500000
147,1941.250000147,12.500000
148,1941.250000148,12.500000
149,1941.250000149,12.500000
150,1941.250000150,12.500000
151,1941.250000151,12.500000
152,1941.250000152,-83.750000
153,1941.250000153,-83.750000
154,1941.250000154,12.500000
155,1941.250000155,-83.750000
156,1941.250000156,12.500000
157,1941.250000157,-83.750000
158,1941.250000158,12.500000
159,1941.250000159,-83.750000
160,1941.250000160,12.500000
161,1941.250000161,-83.750000
162,1941.250000162,12.500000
163,1941.250000163,-83.750000
164,1941.250000164,12.500000
165,1941.250000165,-83.750000
166,1941.250000166,-83.750000
167,1941.250000167,12.500000
168,1941.250000168,12.500000
169,1941.250000169,12.500000
170,1941.250000170,12.500000
171,1941.250000171,12.500000
172,1941.250000172,12.500000
173,1941.250000173,12.500000
174,1941.250000174,12.500000
175,1941.250000175,-83.750000
176,1941.250000176,12.500000
177,1941.250000177,12.500000
178,2037.500000178,12.500000
179,1941.250000179,-83.750000
180,1941.250000180,12.500000
181,1941.250000181,12.500000
182,1941.250000182,12.500000
183,2037.500000183,12.500000
184,1941.250000184,12.500000
185,1941.250000185,12.500000
186,2037.500000186,12.500000
187,1941.250000187,-83.750000
188,1941.250000188,12.500000
189,1941.250000189,12.500000
190,1941.250000190,12.500000
191,1941.250000191,12.500000
192,1941.250000192,12.500000
193,1941.250000193,12.500000
194,1941.250000194,-83.750000
195,2037.500000195,-83.750000
196,1941.250000196,12.500000
197,1941.250000197,12.500000
198,1941.250000198,12.500000
199,1941.250000199,-83.750000
200,1941.250000200,12.500000
201,1941.250000201,12.500000
202,1941.250000202,12.500000
203,1941.250000203,12.500000
204,1941.250000204,-83.750000
205,1941.250000205,12.500000
206,1941.250000206,12.500000
207,1941.250000207,12.500000
208,1941.250000208,12.500000
209,1941.250000209,-83.750000
210,1941.250000210,12.500000
211,2037.500000211,-83.750000
212,1941.250000212,12.500000
213,1941.250000213,12.500000
214,1941.250000214,12.500000
215,1941.250000215,-83.750000
216,1941.250000216,12.500000
217,1941.250000217,12.500000
218,1941.250000218,12.500000
219,1941.250000219,12.500000
220,1941.250000220,12.500000
221,1941.250000221,12.500000
222,1941.250000222,12.500000
223,1941.250000223,12.500000
224,1941.250000224,12.500000
225,1941.250000225,12.500000
226,1941.250000226,12.500000
227,1941.250000227,-83.750000
228,1941.250000228,12.500000
229,1941.250000229,12.500000
230,1941.250000230,-83.750000
231,1941.250000231,12.500000
232,1941.250000232,12.500000
233,1941.250000233,12.500000
234,2037.500000234,12.500000
235,1941.250000235,12.500000
236,1941.250000236,-83.750000
237,1941.250000237,12.500000
238,1941.250000238,-83.750000
239,1941.250000239,12.500000
240,1941.250000240,12.500000
241,1941.250000241,12.500000
242,1941.250000242,12.500000
243,1941.250000243,-83.750000
244,1941.250000244,-83.750000
245,1941.250000245,12.500000
246,1941.250000246,12.500000
247,1941.250000247,-83.750000
248,1941.250000248,12.500000
249,1941.250000249,-83.750000
250,1941.250000250,12.500000
251,2037.500000251,12.500000
252,1941.250000252,-83.750000
253,1941.250000253,12.500000
254,1941.250000254,12.500000
255,1941.250000255,12.500000
256,1941.250000256,12.500000
257,1941.250000257,12.500000
258,1941.250000258,-83.750000
259,1941.250000259,12.500000
260,1941.250000260,12.500000
261,2037.500000261,12.500000
262,1941.250000262,-83.750000
263,1941.250000263,12.500000
264,1941.250000264,12.500000
265,1941.250000265,12.500000
266,1941.250000266,12.500000
267,1941.250000267,12.500000
268,1941.250000268,12.500000
269,1941.250000269,12.500000
270,1941.250000270,12.500000
271,1941.250000271,12.500000
272,1941.250000272,12.500000
273,1941.250000273,12.500000
274,1941.250000274,12.500000
275,1941.250000275,-83.750000
276,1941.250000276,12.500000
277,2037.500000277,12.500000
278,1941.250000278,-83.750000
279,1941.250000279,-83.750000
280,1941.250000280,12.500000
281,1941.250000281,12.500000
282,1941.250000282,12.500000
283,1941.250000283,12.500000
284,1941.250000284,12.500000
285,1941.250000285,12.500000
286,1941.250000286,12.500000
287,1941.250000287,12.500000
288,1941.250000288,12.500000
289,1941.250000289,12.500000
290,1941.250000290,12.500000
291,2037.500000291,-83.750000
292,1941.250000292,12.500000
293,2037.500000293,12.500000
294,1941.250000294,12.500000
295,1941.250000295,12.500000
296,1941.250000296,12.500000
297,1941.250000297,-83.750000
298,1941.250000298,12.500000
299,1941.250000299,12.500000
300,1941.250000300,12.500000
301,1941.250000301,12.500000
302,1941.250000302,12.500000
303,1941.250000303,-83.750000
304,1941.250000304,12.500000
305,1941.250000305,12.500000
306,1941.250000306,12.500000
307,1941.250000307,12.500000
308,1941.250000308,12.500000
309,1941.250000309,12.500000
310,1941.250000310,12.500000
311,1941.250000311,12.500000
312,1941.250000312,12.500000
313,1941.250000313,12.500000
314,1941.250000314,12.500000
315,1941.250000315,-83.750000
316,1941.250000316,12.500000
317,1941.250000317,12.500000
318,1941.250000318,12.500000
319,1941.250000319,12.500000
320,1941.250000320,12.500000
321,1941.250000321,12.500000
322,1941.250000322,12.500000
323,1941.250000323,-83.750000
324,1941.250000324,12.500000
325,1941.250000325,-83.750000
326,1941.250000326,12.500000
327,1941.250000327,12.500000
328,1941.250000328,-83.750000
329,1941.250000329,12.500000
330,1941.250000330,12.500000
331,2037.500000331,-83.750000
332,1941.250000332,12.500000
333,1941.250000333,12.500000
334,1941.250000334,12.500000
335,1941.250000335,12.500000
336,1941.250000336,12.500000
337,1941.250000337,12.500000
338,1941.250000338,-83.750000
339,1941.250000339,12.500000
340,1941.250000340,12.500000
341,1941.250000341,12.500000
342,1941.250000342,12.500000
343,1941.250000343,12.500000
344,1941.250000344,-83.750000
345,1941.250000345,12.500000
346,1941.250000346,12.500000
347,1941.250000347,-83.750000
348,1941.250000348,12.500000
349,1941.250000349,12.500000
350,1941.250000350,12.500000
351,1941.250000351,-83.750000
352,1941.250000352,12.500000
353,1941.250000353,12.500000
354,1941.250000354,12.500000
355,1941.250000355,12.500000
356,1941.250000356,-83.750000
357,1941.250000357,12.500000
358,1941.250000358,12.500000
359,1941.250000359,-83.750000
360,1941.250000360,12.500000
361,1941.250000361,12.500000
362,1941.250000362,12.500000
363,1941.250000363,-83.750000
364,1941.250000364,12.500000
365,1941.250000365,12.500000
366,1941.250000366,-83.750000
367,1941.250000367,12.500000
368,1941.250000368,12.500000
369,1941.250000369,12.500000
370,1941.250000370,12.500000
371,1941.250000371,12.500000
372,1941.250000372,12.500000
373,1941.250000373,12.500000
374,1941.250000374,12.500000
375,1941.250000375,-83.750000
376,1941.250000376,12.500000
377,1941.250000377,12.500000
378,1941.250000378,12.500000
379,1941.250000379,12.500000
380,1941.250000380,12.500000
381,1941.250000381,-83.750000
382,1941.250000382,12.500000
383,1941.250000383,-83.750000
384,1941.250000384,-83.750000
385,1941.250000385,12.500000
386,1941.250000386,12.500000
387,1941.250000387,12.500000
388,1941.250000388,12.500000
389,1941.250000389,12.500000
390,1941.250000390,12.500000
391,2037.500000391,12.500000
392,1941.250000392,12.500000
393,1941.250000393,12.500000
394,1941.250000394,12.500000
395,1941.250000395,-83.750000
396,1941.250000396,12.500000
397,2037.500000397,12.500000
398,1941.250000398,12.500000
399,1941.250000399,12.500000
400,1941.250000400,12.500000
401,1941.250000401,12.500000
402,1941.250000402,12.500000
403,1941.250000403,-83.750000
404,1941.250000404,12.500000
405,1941.250000405,12.500000
406,1941.250000406,12.500000
407,1941.250000407,12.500000
408,1941.250000408,12.500000
409,1941.250000409,12.500000
410,1941.250000410,-83.750000
411,1941.250000411,-83.750000
412,1941.250000412,12.500000
413,1941.250000413,12.500000
414,1941.250000414,12.500000
415,1941.250000415,12.500000
416,1941.250000416,12.500000
417,1941.250000417,-83.750000
418,1941.250000418,12.500000
419,1941.250000419,12.500000
420,1941.250000420,12.500000
421,1941.250000421,12.500000
422,1941.250000422,12.500000
423,1941.250000423,12.500000
424,1941.250000424,12.500000
425,1941.250000425,12.500000
426,1941.250000426,12.500000
427,1941.250000427,-83.750000
428,1941.250000428,12.500000
429,1941.250000429,-83.750000
430,1941.250000430,12.500000
431,1941.250000431,-83.750000
432,1941.250000432,12.500000
433,1941.250000433,12.500000
434,1941.250000434,12.500000
435,1941.250000435,12.500000
436,1941.250000436,-83.750000
437,1941.250000437,12.500000
438,1941.250000438,12.500000
439,1941.250000439,12.500000
440,1941.250000440,12.500000
441,1941.250000441,12.500000
442,1941.250000442,12.500000
443,1941.250000443,12.500000
444,1941.250000444,12.500000
445,1941.250000445,12.500000
446,1941.250000446,12.500000
447,1941.250000447,12.500000
448,1941.250000448,-83.750000
449,1941.250000449,12.500000
450,1941.250000450,12.500000
451,1941.250000451,-83.750000
452,1941.250000452,-83.750000
453,1941.250000453,12.500000
454,1941.250000454,12.500000
455,1941.250000455,-83.750000
456,1941.250000456,12.500000
457,1941.250000457,12.500000
458,1941.250000458,12.500000
459,1941.250000459,12.500000
460,1941.250000460,12.500000
461,1941.250000461,12.500000
462,1941.250000462,12.500000
463,1941.250000463,12.500000
464,1941.250000464,12.500000
465,1941.250000465,12.500000
466,1941.250000466,12.500000
467,1941.250000467,12.500000
468,1941.250000468,12.500000
469,1941.250000469,-83.750000
470,1941.250000470,12.500000
471,1941.250000471,-83.750000
472,1941.250000472,12.500000
473,1941.250000473,12.500000
474,1941.250000474,12.500000
475,1941.250000475,12.500000
476,1941.250000476,12.500000
477,1941.250000477,-83.750000
478,1941.250000478,12.500000
479,1941.250000479,-83.750000
480,1941.250000480,12.500000
481,1941.250000481,-83.750000
482,1941.250000482,12.500000
483,1941.250000483,12.500000
484,1941.250000484,-83.750000
485,1941.250000485,12.500000
486,1941.250000486,12.500000
487,1941.250000487,-83.750000
488,1843.750000488,12.500000
489,2037.500000489,12.500000
490,1941.250000490,12.500000
491,1941.250000491,12.500000
492,1941.250000492,12.500000
493,1941.250000493,-83.750000
494,1941.250000494,12.500000
495,1941.250000495,-83.750000
496,1941.250000496,12.500000
497,1941.250000497,-83.750000
498,1941.250000498,12.500000
499,1941.250000499,-83.750000
500,1941.250000500,12.500000
501,1941.250000501,12.500000
502,1941.250000502,12.500000
503,1941.250000503,12.500000
504,1941.250000504,12.500000
505,1941.250000505,12.500000
506,2037.500000506,12.500000
507,1941.250000507,-83.750000
508,1941.250000508,12.500000
509,1941.250000509,12.500000
510,1941.250000510,12.500000
511,1941.250000511,12.500000
512,1941.250000512,12.500000
513,2037.500000513,12.500000
514,1941.250000514,12.500000
515,1941.250000515,12.500000
516,1941.250000516,12.500000
517,1941.250000517,12.500000
518,1941.250000518,12.500000
519,1941.250000519,-83.750000
520,1941.250000520,-83.750000
521,1941.250000521,12.500000
522,1941.250000522,-83.750000
523,1941.250000523,-83.750000
524,1941.250000524,-83.750000
525,1941.250000525,12.500000
526,1941.250000526,12.500000
527,1941.250000527,-83.750000
528,1941.250000528,12.500000
529,2037.500000529,12.500000
530,1941.250000530,12.500000
531,1941.250000531,-83.750000
532,1941.250000532,12.500000
533,1941.250000533,12.500000
534,1941.250000534,12.500000
535,1941.250000535,12.500000
536,1941.250000536,12.500000
537,1941.250000537,12.500000
538,1941.250000538,12.500000
539,1941.250000539,-83.750000
540,1941.250000540,12.500000
541,1941.250000541,12.500000
542,1941.250000542,12.500000
543,1941.250000543,12.500000
544,1941.250000544,12.500000
545,1941.250000545,12.500000
546,1941.250000546,12.500000
547,1941.250000547,12.500000
548,1941.250000548,12.500000
549,1941.250000549,12.500000
550,1941.250000550,12.500000
551,1941.250000551,-83.750000
552,1941.250000552,12.500000
553,1941.250000553,12.500000
554,1941.250000554,12.500000
555,1941.250000555,-83.750000
556,1941.250000556,12.500000
557,1941.250000557,12.500000
558,1941.250000558,12.500000
559,1941.250000559,-83.750000
560,1941.250000560,12.500000
561,1941.250000561,12.500000
562,1941.250000562,-83.750000
563,1941.250000563,12.500000
564,1941.250000564,12.500000
565,1941.250000565,12.500000
566,1941.250000566,12.500000
567,1941.250000567,12.500000
568,1941.250000568,-83.750000
569,2037.500000569,12.500000
570,1941.250000570,12.500000
571,1941.250000571,12.500000
572,1941.250000572,12.500000
573,1941.250000573,12.500000
574,1941.250000574,12.500000
575,1941.250000575,12.500000
576,1941.250000576,12.500000
577,1941.250000577,12.500000
578,1941.250000578,12.500000
579,1941.250000579,12.500000
580,1941.250000580,12.500000
581,1941.250000581,12.500000
582,1941.250000582,12.500000
583,1941.250000583,-83.750000
584,1941.250000584,12.500000
585,1941.250000585,-83.750000
586,1941.250000586,12.500000
587,1941.250000587,12.500000
588,1941.250000588,12.500000
589,1941.250000589,12.500000
590,1941.250000590,-83.750000
591,1941.250000591,12.500000
592,1941.250000592,-83.750000
593,1941.250000593,-83.750000
594,1941.250000594,12.500000
595,1941.250000595,-83.750000
596,1941.250000596,12.500000
597,1941.250000597,12.500000
598,1941.250000598,12.500000
599,1941.250000599,12.500000
600,1941.250000600,-83.750000
601,1941.250000601,12.500000
602,1941.250000602,12.500000
603,1941.250000603,12.500000
604,1941.250000604,-83.750000
605,1941.250000605,12.500000
606,1941.250000606,12.500000
607,1941.250000607,-83.750000
608,1941.250000608,12.500000
609,1941.250000609,12.500000
610,1941.250000610,-83.750000
611,1941.250000611,-83.750000
612,1941.250000612,12.500000
613,1941.250000613,-83.750000
614,1941.250000614,12.500000
615,1941.250000615,-83.750000
616,1941.250000616,12.500000
617,1941.250000617,12.500000
618,1941.250000618,12.500000
619,1941.250000619,-83.750000
620,1941.250000620,12.500000
621,1941.250000621,12.500000
622,1941.250000622,-83.750000
623,1941.250000623,12.500000
624,1941.250000624,12.500000
625,1941.250000625,12.500000
626,1941.250000626,12.500000
627,1941.250000627,-83.750000
628,1941.250000628,12.500000
629,1941.250000629,12.500000
630,1941.250000630,12.500000
631,1941.250000631,-83.750000
632,1941.250000632,12.500000
633,1941.250000633,-83.750000
634,1941.250000634,12.500000
635,1941.250000635,-83.750000
636,1941.250000636,12.500000
637,1941.250000637,12.500000
638,1941.250000638,12.500000
639,1941.250000639,-83.750000
640,1941.250000640,12.500000
641,1941.250000641,-83.750000
642,1941.250000642,12.500000
643,1941.250000643,-83.750000
644,1941.250000644,12.500000
645,1941.250000645,12.500000
646,1941.250000646,12.500000
647,1941.250000647,12.500000
648,1941.250000648,12.500000
649,1941.250000649,12.500000
650,1941.250000650,12.500000
651,1941.250000651,12.500000
652,1941.250000652,12.500000
653,1941.250000653,-83.750000
654,1941.250000654,-83.750000
655,1941.250000655,12.500000
656,1941.250000656,12.500000
657,1941.250000657,12.500000
658,1941.250000658,-83.750000
659,1941.250000659,-83.750000
660,1941.250000660,12.500000
661,1941.250000661,12.500000
662,1941.250000662,12.500000
663,1941.250000663,12.500000
664,1941.250000664,-83.750000
665,1941.250000665,12.500000
666,1941.250000666,12.500000
667,1941.250000667,12.500000
668,1941.250000668,12.500000
669,1941.250000669,12.500000
670,1941.250000670,12.500000
671,1941.250000671,-83.750000
672,1941.250000672,12.500000
673,1941.250000673,12.500000
674,1941.250000674,12.500000
675,1941.250000675,-83.750000
676,1941.250000676,-83.750000
677,1941.250000677,12.500000
678,1941.250000678,-83.750000
