experimentaldata/4kv_discharge.csv

Channel              :,CH1,CH2
Frequency            :,  ?,  ?
Period               :,  ?,  ?
PK-PK                :,7.169V,4.612V
Average              :,3.526V,-43.79mV
Vertical pos         :,1.000000mV,1.000000mV
Probe attenuation    :,1X,1X
Voltage per ADC value:,0.312500mV,0.312500mV
Time interval        :,0.00200uS,0.00200uS

index,CH1_Voltage(mV),CH2_Voltage(mV)
1,3975.0000001,12.500000
2,3975.0000002,-83.750000
3,3975.0000003,12.500000
4,3975.0000004,12.500000
5,3975.0000005,12.500000
6,3975.0000006,12.500000
7,3975.0000007,12.500000
8,3975.0000008,12.500000
9,3975.0000009,-83.750000
10,4072.50000010,12.500000
11,3975.00000011,12.500000
12,3975.00000012,12.500000
13,3975.00000013,12.500000
14,4072.50000014,12.500000
15,3975.00000015,12.500000
16,3975.00000016,-83.750000
17,3975.00000017,12.500000
18,3975.00000018,-83.750000
19,3975.00000019,12.500000
20,3975.00000020,12.500000
21,3975.00000021,12.500000
22,3975.00000022,12.500000
23,3975.00000023,12.500000
24,3975.00000024,-83.750000
25,3975.00000025,12.500000
26,3975.00000026,12.500000
27,3975.00000027,12.500000
28,3975.00000028,-83.750000
29,3975.00000029,12.500000
30,4072.50000030,12.500000
31,3975.00000031,-83.750000
32,3975.00000032,12.500000
33,3975.00000033,12.500000
34,3975.00000034,-83.750000
35,3975.00000035,12.500000
36,3975.00000036,12.500000
37,3975.00000037,12.500000
38,3975.00000038,12.500000
39,3975.00000039,12.500000
40,4072.50000040,-83.750000
41,3975.00000041,12.500000
42,3975.00000042,-83.750000
43,3975.00000043,12.500000
44,3975.00000044,-83.750000
45,3975.00000045,12.500000
46,3975.00000046,12.500000
47,3975.00000047,12.500000
48,3975.00000048,12.500000
49,3975.00000049,-83.750000
50,3975.00000050,12.500000
51,3975.00000051,12.500000
52,3975.00000052,12.500000
53,3975.00000053,12.500000
54,3975.00000054,12.500000
55,3975.00000055,12.500000
56,3975.00000056,12.500000
57,3975.00000057,12.500000
58,3975.00000058,12.500000
59,3975.00000059,12.500000
60,3975.00000060,12.500000
61,3975.00000061,-83.750000
62,3975.00000062,12.500000
63,3975.00000063,12.500000
64,3975.00000064,12.500000
65,3975.00000065,12.500000
66,3975.00000066,12.500000
67,3975.00000067,12.500000
68,3975.00000068,12.500000
69,3975.00000069,12.500000
70,3975.00000070,12.500000
71,3975.00000071,12.500000
72,3975.00000072,12.500000
73,3975.00000073,12.500000
74,3975.00000074,-83.750000
75,3975.00000075,12.500000
76,3975.00000076,-83.750000
77,3975.00000077,12.500000
78,3975.00000078,12.500000
79,3975.00000079,12.500000
80,3975.00000080,-83.750000
81,3975.00000081,12.500000
82,3975.00000082,12.500000
83,3975.00000083,12.500000
84,3975.00000084,12.500000
85,3975.00000085,12.500000
86,3975.00000086,12.500000
87,3975.00000087,12.500000
88,3975.00000088,-83.750000
89,3975.00000089,12.500000
90,3975.00000090,12.500000
91,3975.00000091,12.500000
92,3975.00000092,12.500000
93,3975.00000093,12.500000
94,3975.00000094,12.500000
95,3975.00000095,12.500000
96,3975.00000096,-83.750000
97,3975.00000097,-83.750000
98,4072.50000098,12.500000
99,3975.00000099,12.500000
100,3975.000000100,12.500000
101,3975.000000101,12.500000
102,3975.000000102,12.500000
103,3975.000000103,12.500000
104,3975.000000104,12.500000
105,3975.000000105,12.500000
106,3975.000000106,12.500000
107,3975.000000107,12.500000
108,3975.000000108,12.500000
109,3975.000000109,12.500000
110,4072.500000110,12.500000
111,3975.000000111,12.500000
112,3975.000000112,-83.750000
113,3975.000000113,12.500000
114,3975.000000114,12.500000
115,3975.000000115,12.500000
116,3975.000000116,12.500000
117,3975.000000117,12.500000
118,3975.000000118,-83.750000
119,3975.000000119,12.500000
120,3975.000000120,-83.750000
121,3975.000000121,12.500000
122,3975.000000122,12.500000
123,3975.000000123,-83.750000
124,3975.000000124,-83.750000
125,3975.000000125,12.500000
126,3975.000000126,-83.750000
127,3975.000000127,12.500000
128,3975.000000128,-83.750000
129,3975.000000129,12.500000
130,3975.000000130,12.500000
131,3975.000000131,12.500000
132,3975.000000132,12.500000
133,3975.000000133,-83.750000
134,3975.000000134,12.500000
135,4072.500000135,12.500000
136,3975.000000136,12.500000
137,3975.000000137,12.500000
138,3975.000000138,12.500000
139,3975.000000139,12.500000
140,3975.000000140,-83.750000
141,3975.000000141,12.500000
142,3975.000000142,-83.750000
143,3975.000000143,12.500000
144,3975.000000144,12.500000
145,3975.000000145,12.500000
146,3975.000000146,12.500000
147,3975.000000147,12.500000
148,3975.000000148,12.500000
149,3975.000000149,12.500000
150,3975.000000150,12.500000
151,3975.000000151,12.500000
152,3975.000000152,-83.750000
153,3975.000000153,12.500000
154,3975.000000154,12.500000
155,3975.000000155,12.500000
156,3975.000000156,12.500000
157,3975.000000157,12.500000
158,3975.000000158,12.500000
159,3975.000000159,12.500000
160,3975.000000160,12.500000
161,3975.000000161,12.500000
162,3975.000000162,12.500000
163,3975.000000163,12.500000
164,3975.000000164,-83.750000
165,3975.000000165,12.500000
166,3975.000000166,12.500000
167,3975.000000167,12.500000
168,3975.000000168,12.500000
169,3975.000000169,12.500000
170,3975.000000170,12.500000
171,3975.000000171,12.500000
172,3975.000000172,-83.750000
173,3975.000000173,12.500000
174,3975.000000174,12.500000
175,3975.000000175,12.500000
176,3975.000000176,12.500000
177,3975.000000177,12.500000
178,3975.000000178,-83.750000
179,3975.000000179,12.500000
180,3975.000000180,-83.750000
181,3975.000000181,12.500000
182,3975.000000182,12.500000
183,3975.000000183,12.500000
184,3975.000000184,12.500000
185,3975.000000185,12.500000
186,4072.500000186,12.500000
187,3975.000000187,-83.750000
188,3975.000000188,12.500000
189,3975.000000189,-83.750000
190,3975.000000190,12.500000
191,3975.000000191,12.500000
192,3975.000000192,12.500000
193,3975.000000193,12.500000
194,3975.000000194,-83.750000
195,3975.000000195,12.500000
196,3975.000000196,12.500000
197,3975.000000197,12.500000
198,3975.000000198,12.500000
199,3975.000000199,12.500000
200,3975.000000200,-83.750000
201,3975.000000201,12.500000
202,3975.000000202,12.500000
203,3975.000000203,12.500000
204,3975.000000204,-83.750000
205,3975.000000205,12.500000
206,3975.000000206,-83.750000
207,3975.000000207,12.500000
208,3975.000000208,-83.750000
209,3975.000000209,12.500000
210,3975.000000210,12.500000
211,3975.000000211,12.500000
212,3975.000000212,12.500000
213,3975.000000213,12.500000
214,3975.000000214,12.500000
215,3975.000000215,12.500000
216,3975.000000216,-83.750000
217,3975.000000217,12.500000
218,3975.000000218,12.500000
219,3975.000000219,12.500000
220,3975.000000220,12.500000
221,3975.000000221,12.500000
222,3975.000000222,-83.750000
223,3975.000000223,12.500000
224,3975.000000224,12.500000
225,3975.000000225,12.500000
226,4072.500000226,12.500000
227,3975.000000227,12.500000
228,3975.000000228,-83.750000
229,3975.000000229,12.500000
230,3975.000000230,12.500000
231,3975.000000231,12.500000
232,3975.000000232,-83.750000
233,3975.000000233,12.500000
234,4072.500000234,-83.750000
235,3975.000000235,12.500000
236,3975.000000236,-83.750000
237,3975.000000237,12.500000
238,3975.000000238,12.500000
239,3975.000000239,12.500000
240,3975.000000240,12.500000
241,3975.000000241,-83.750000
242,3975.000000242,12.500000
243,3975.000000243,12.500000
244,3975.000000244,-83.750000
245,3975.000000245,-83.750000
246,3975.000000246,12.500000
247,3975.000000247,12.500000
248,3975.000000248,12.500000
249,3975.000000249,-83.750000
250,3975.000000250,12.500000
251,3975.000000251,12.500000
252,3975.000000252,-83.750000
253,3975.000000253,12.500000
254,3975.000000254,12.500000
255,3975.000000255,12.500000
256,3975.000000256,12.500000
257,3975.000000257,-83.750000
258,3975.000000258,12.500000
259,3975.000000259,12.500000
260,3975.000000260,-83.750000
261,3975.000000261,12.500000
262,3975.000000262,12.500000
263,3975.000000263,-83.750000
264,3975.000000264,12.500000
265,3975.000000265,12.500000
266,3975.000000266,12.500000
267,3975.000000267,12.500000
268,3975.000000268,12.500000
269,3975.000000269,-83.750000
270,3975.000000270,12.500000
271,3975.000000271,12.500000
272,3975.000000272,-83.750000
273,3975.000000273,12.500000
274,3975.000000274,12.500000
275,3975.000000275,-83.750000
276,3975.000000276,12.500000
277,3975.000000277,12.500000
278,4072.500000278,12.500000
279,3975.000000279,12.500000
280,3975.000000280,12.500000
281,3975.000000281,12.500000
282,3975.000000282,12.500000
283,3975.000000283,-83.750000
284,3975.000000284,12.500000
285,3975.000000285,12.500000
286,4072.500000286,12.500000
287,3975.000000287,-83.750000
288,3975.000000288,-83.750000
289,3975.000000289,12.500000
290,3975.000000290,12.500000
291,3975.000000291,12.500000
292,3975.000000292,12.500000
293,3975.000000293,12.500000
294,4072.500000294,12.500000
295,3975.000000295,12.500000
296,3975.000000296,-83.750000
297,3975.000000297,12.500000
298,3975.000000298,12.500000
299,3975.000000299,12.500000
300,3975.000000300,12.500000
301,3975.000000301,12.500000
302,3975.000000302,12.500000
303,3975.000000303,12.500000
304,3975.000000304,12.500000
305,3975.000000305,12.500000
306,3975.000000306,-83.750000
307,3975.000000307,12.500000
308,4072.500000308,12.500000
309,3975.000000309,12.500000
310,3975.000000310,12.500000
311,3975.000000311,12.500000
312,3975.000000312,-83.750000
313,3975.000000313,12.500000
314,3975.000000314,12.500000
315,3975.000000315,12.500000
316,3975.000000316,-83.750000
317,3975.000000317,12.500000
318,3975.000000318,12.500000
319,3975.000000319,12.500000
320,3975.000000320,12.500000
321,3975.000000321,-83.750000
322,3975.000000322,12.500000
323,3975.000000323,12.500000
324,3975.000000324,-83.750000
325,3975.000000325,12.500000
326,3975.000000326,12.500000
327,3975.000000327,12.500000
328,3975.000000328,-83.750000
329,3975.000000329,-83.750000
330,3975.000000330,12.500000
331,3975.000000331,12.500000
332,3975.000000332,12.500000
333,3975.000000333,12.500000
334,3975.000000334,12.500000
335,3975.000000335,12.500000
336,3975.000000336,-83.750000
337,3975.000000337,12.500000
338,4072.500000338,12.500000
339,3975.000000339,12.500000
340,3975.000000340,-83.750000
341,3975.000000341,12.500000
342,3975.000000342,12.500000
343,3975.000000343,12.500000
344,3975.000000344,12.500000
345,3975.000000345,12.500000
346,3975.000000346,12.500000
347,3975.000000347,12.500000
348,3975.000000348,12.500000
349,3975.000000349,12.500000
350,3975.000000350,12.500000
351,3975.000000351,12.500000
352,3975.000000352,-83.750000
353,3975.000000353,-83.750000
354,3975.000000354,12.500000
355,3975.000000355,12.500000
356,3975.000000356,12.500000
357,3975.000000357,12.500000
358,3975.000000358,12.500000
359,3975.000000359,12.500000
360,3975.000000360,-83.750000
361,3975.000000361,12.500000
362,3975.000000362,12.500000
363,3975.000000363,12.500000
364,3975.000000364,-83.750000
365,3975.000000365,12.500000
366,3975.000000366,-83.750000
367,3975.000000367,12.500000
368,3975.000000368,-83.750000
369,3975.000000369,12.500000
370,3975.000000370,12.500000
371,3975.000000371,12.500000
372,3975.000000372,12.500000
373,3975.000000373,12.500000
374,3975.000000374,-83.750000
375,3975.000000375,12.500000
376,3975.000000376,-83.750000
377,3975.000000377,12.500000
378,3975.000000378,12.500000
379,3975.000000379,12.500000
380,3975.000000380,12.500000
381,3975.000000381,12.500000
382,3975.000000382,12.500000
383,3975.000000383,12.500000
384,3975.000000384,-83.750000
385,3975.000000385,12.500000
386,3975.000000386,12.500000
387,3975.000000387,12.500000
388,3975.000000388,-83.750000
389,3975.000000389,12.500000
390,3975.000000390,12.500000
391,3975.000000391,12.500000
392,3975.000000392,-83.750000
393,3975.000000393,12.500000
394,3975.000000394,12.500000
395,3975.000000395,12.500000
396,3975.000000396,-83.750000
397,3975.000000397,12.500000
398,3975.000000398,12.500000
399,3975.000000399,12.500000
400,3975.000000400,12.500000
401,3975.000000401,12.500000
402,3975.000000402,12.500000
403,3975.000000403,12.500000
404,3975.000000404,12.500000
405,3975.000000405,12.500000
406,3975.000000406,12.500000
407,3975.000000407,12.500000
408,3975.000000408,12.500000
409,3975.000000409,-83.750000
410,3975.000000410,12.500000
411,3975.000000411,12.500000
412,3975.000000412,12.500000
413,3975.000000413,12.500000
414,3975.000000414,12.500000
415,3975.000000415,12.500000
416,3975.000000416,12.500000
417,3975.000000417,12.500000
418,3975.000000418,12.500000
419,3975.000000419,12.500000
420,3975.000000420,-83.750000
421,3975.000000421,12.500000
422,3975.000000422,12.500000
423,3975.000000423,12.500000
424,3975.000000424,12.500000
425,3975.000000425,12.500000
426,4072.500000426,-83.750000
427,3975.000000427,12.500000
428,3975.000000428,12.500000
429,3975.000000429,12.500000
430,3975.000000430,12.500000
431,3975.000000431,12.500000
432,3975.000000432,12.500000
433,3975.000000433,12.500000
434,3975.000000434,12.500000
435,3975.000000435,12.500000
436,3975.000000436,12.500000
437,3975.000000437,12.500000
438,3975.000000438,12.500000
439,3975.000000439,-83.750000
440,3975.000000440,12.500000
441,3975.000000441,12.500000
442,3975.000000442,-83.750000
443,3975.000000443,12.500000
444,3975.000000444,12.500000
445,3975.000000445,12.500000
446,3975.000000446,12.500000
447,3975.000000447,12.500000
448,3975.000000448,-83.750000
449,3975.000000449,12.500000
450,3975.000000450,12.500000
451,3975.000000451,12.500000
452,3975.000000452,-83.750000
453,3975.000000453,12.500000
454,3975.000000454,12.500000
455,3975.000000455,12.500000
456,3975.000000456,-83.750000
457,3975.000000457,12.500000
458,3975.000000458,12.500000
459,3975.000000459,12.500000
460,3975.000000460,12.500000
461,3975.000000461,12.500000
462,3975.000000462,-83.750000
463,4072.500000463,12.500000
464,3975.000000464,-83.750000
465,3975.000000465,-83.750000
466,3975.000000466,12.500000
467,3975.000000467,12.500000
468,3975.000000468,-83.750000
469,3975.000000469,12.500000
470,3975.000000470,12.500000
471,3975.000000471,12.500000
472,3975.000000472,-83.750000
473,3975.000000473,12.500000
474,3975.000000474,12.500000
475,3975.000000475,12.500000
476,3975.000000476,-83.750000
477,3975.000000477,12.500000
478,3975.000000478,12.500000
479,3975.000000479,-83.750000
480,3975.000000480,-83.750000
481,3975.000000481,12.500000
482,3975.000000482,-83.750000
483,3975.000000483,12.500000
484,3975.000000484,12.500000
485,3975.000000485,12.500000
486,3975.000000486,12.500000
487,3975.000000487,12.500000
488,3975.000000488,-83.750000
489,3975.000000489,12.500000
490,3975.000000490,-83.750000
491,3975.000000491,12.500000
492,3975.000000492,12.500000
493,3975.000000493,12.500000
494,3975.000000494,12.500000
495,3975.000000495,-83.750000
496,3975.000000496,12.500000
497,3975.000000497,12.500000
498,3975.000000498,12.500000
499,3975.000000499,12.500000
500,3975.000000500,12.500000
501,3975.000000501,-83.750000
502,3975.000000502,12.500000
503,3975.000000503,12.500000
504,3975.000000504,12.500000
505,3975.000000505,12.500000
506,3975.000000506,12.500000
507,3975.000000507,12.500000
508,3975.000000508,12.500000
509,3975.000000509,12.500000
510,3975.000000510,-83.750000
511,3975.000000511,12.500000
512,3975.000000512,12.500000
513,3975.000000513,12.500000
514,3975.000000514,12.500000
515,3975.000000515,12.500000
516,3975.000000516,12.500000
517,3975.000000517,-83.750000
518,4072.500000518,12.500000
519,3975.000000519,12.500000
520,3975.000000520,12.500000
521,3975.000000521,12.500000
522,3975.000000522,12.500000
523,3975.000000523,12.500000
524,3975.000000524,-83.750000
525,3975.000000525,12.500000
526,4072.500000526,12.500000
527,3975.000000527,12.500000
528,3975.000000528,12.500000
529,3975.000000529,-83.750000
530,3975.000000530,12.500000
531,3975.000000531,12.500000
532,3975.000000532,12.500000
533,3975.000000533,12.500000
534,3975.000000534,-83.750000
535,3975.000000535,12.500000
536,3975.000000536,-83.750000
537,3975.000000537,12.500000
538,3975.000000538,12.500000
539,3975.000000539,12.500000
540,3975.000000540,-83.750000
541,3975.000000541,12.500000
542,3975.000000542,12.500000
543,3975.000000543,12.500000
544,3975.000000544,-83.750000
545,3975.000000545,12.500000
546,3975.000000546,12.500000
547,3975.000000547,12.500000
548,3975.000000548,-83.750000
549,3975.000000549,12.500000
550,3975.000000550,-83.750000
551,3975.000000551,12.500000
552,3975.000000552,-83.750000
553,3975.000000553,12.500000
554,3975.000000554,12.500000
555,3975.000000555,12.500000
556,3975.000000556,12.500000
557,3975.000000557,12.500000
558,3975.000000558,12.500000
559,3975.000000559,12.500000
560,3975.000000560,12.500000
561,3975.000000561,12.500000
562,3975.000000562,-83.750000
563,3975.000000563,12.500000
564,3975.000000564,-83.750000
565,3975.000000565,12.500000
566,3975.000000566,12.500000
567,3975.000000567,12.500000
568,3975.000000568,-83.750000
569,3975.000000569,12.500000
570,3975.000000570,12.500000
571,3975.000000571,12.500000
572,3975.000000572,12.500000
573,3975.000000573,12.500000
574,3975.000000574,12.500000
575,3975.000000575,-83.750000
576,3975.000000576,12.500000
577,3975.000000577,-83.750000
578,3975.000000578,12.500000
579,3975.000000579,12.500000
580,3975.000000580,-83.750000
581,3975.000000581,12.500000
582,3975.000000582,-83.750000
583,3975.000000583,12.500000
584,3975.000000584,12.500000
585,3975.000000585,-83.750000
586,3975.000000586,12.500000
587,3975.000000587,12.500000
588,3975.000000588,12.500000
589,3975.000000589,12.500000
590,3975.000000590,12.500000
591,3975.000000591,12.500000
592,3975.000000592,12.500000
593,3975.000000593,-83.750000
594,3975.000000594,12.500000
595,3975.000000595,12.500000
596,3975.000000596,12.500000
597,3975.000000597,12.500000
598,3975.000000598,12.500000
599,3975.000000599,12.500000
600,3975.000000600,12.500000
601,3975.000000601,12.500000
602,3975.000000602,12.500000
603,3975.000000603,-83.750000
604,3975.000000604,12.500000
605,3975.000000605,12.500000
606,3975.000000606,12.500000
607,3975.000000607,12.500000
608,3975.000000608,12.500000
609,3975.000000609,12.500000
610,3975.000000610,-83.750000
611,3975.000000611,12.500000
612,3975.000000612,12.500000
613,3975.000000613,12.500000
614,3975.000000614,-83.750000
615,3975.000000615,12.500000
616,3975.000000616,-83.750000
617,3975.000000617,12.500000
618,3975.000000618,12.500000
619,3975.000000619,12.500000
620,3975.000000620,-83.750000
621,3975.000000621,12.500000
622,3975.000000622,-83.750000
623,3975.000000623,12.500000
624,3975.000000624,12.500000
625,3975.000000625,-83.750000
626,3975.000000626,12.500000
627,3975.000000627,12.500000
628,3975.000000628,-83.750000
629,3975.000000629,12.500000
630,3975.000000630,12.500000
631,3975.000000631,-83.750000
632,3975.000000632,12.500000
633,3975.000000633,12.500000
634,3975.000000634,12.500000
635,3975.000000635,12.500000
636,3975.000000636,-83.750000
637,3975.000000637,12.500000
638,3975.000000638,12.500000
639,3975.000000639,-83.750000
640,3975.000000640,12.500000
641,3975.000000641,12.500000
642,3975.000000642,12.500000
643,3975.000000643,12.500000
644,3975.000000644,-83.750000
645,3975.000000645,12.500000
646,3975.000000646,-83.750000
647,3975.000000647,12.500000
648,3975.000000648,12.500000
649,3975.000000649,12.500000
650,3975.000000650,12.500000
651,3975.000000651,12.500000
652,3975.000000652,12.500000
653,3975.000000653,12.500000
654,3975.000000654,12.500000
655,3975.000000655,12.500000
656,3975.000000656,-83.750000
657,3975.000000657,12.500000
658,3975.000000658,-83.750000
659,3975.000000659,12.500000
660,3975.000000660,-83.750000
661,3975.000000661,-83.750000
662,3975.000000662,12.500000
663,3975.000000663,12.500000
664,3975.000000664,-83.750000
665,3975.000000665,12.500000
666,3975.000000666,-83.750000
667,3975.000000667,12.500000
668,3975.000000668,-83.750000
669,3975.000000669,12.500000
670,3975.000000670,12.500000
671,3975.000000671,12.500000
672,3975.000000672,-83.750000
673,3975.000000673,12.500000
674,3975.000000674,-83.750000
675,3975.000000675,12.500000
676,3975.000000676,-83.750000
677,3975.000000677,12.500000
678,3975.000000678,-83.750000
679,3975.000000679,12.500000
