experimentaldata/5kvdsc.csv

Channel              :,CH1,CH2,CH3
Frequency            :,  ?,  ?,  ?
Period               :,  ?,  ?,  ?
PK-PK                :,5.771V,265.0mV,121.0mV
Average              :,2.464V,-36.12mV,1.309V
Vertical pos         :,1.000000mV,1.000000mV,1.000000mV
Probe attenuation    :,1X,1X,1X
Voltage per ADC value:,0.312500mV,0.156250mV,0.031250mV
Time interval        :,0.40000uS,0.40000uS,0.40000uS

index,CH1_Voltage(mV),CH2_Voltage(mV),CH3_Voltage(mV)
1,4943.7500001,10.0000001,1681.375000
2,4943.7500002,-38.1250002,1681.375000
3,4943.7500003,-38.1250003,1681.375000
4,4943.7500004,-38.1250004,1681.375000
5,4943.7500005,-38.1250005,1681.375000
6,4943.7500006,10.0000006,1671.750000
7,4943.7500007,10.0000007,1671.750000
8,4943.7500008,-38.1250008,1681.375000
9,4943.7500009,-38.1250009,1671.750000
10,4943.75000010,-38.12500010,1681.375000
11,4943.75000011,-38.12500011,1671.750000
12,4943.75000012,-38.12500012,1671.750000
13,4943.75000013,-38.12500013,1681.375000
14,4943.75000014,-38.12500014,1671.750000
15,4943.75000015,-38.12500015,1671.750000
16,4943.75000016,-38.12500016,1671.750000
17,4943.75000017,-38.12500017,1671.750000
18,4943.75000018,-38.12500018,1671.750000
19,4943.75000019,-38.12500019,1671.750000
20,4943.75000020,-38.12500020,1671.750000
21,4943.75000021,-38.12500021,1671.750000
22,4943.75000022,-38.12500022,1681.375000
23,4943.75000023,-38.12500023,1681.375000
24,4943.75000024,-38.12500024,1671.750000
25,4943.75000025,-38.12500025,1671.750000
26,4943.75000026,-38.12500026,1671.750000
27,4943.75000027,-38.12500027,1671.750000
28,4943.75000028,-38.12500028,1671.750000
29,4943.75000029,-38.12500029,1671.750000
30,4943.75000030,-38.12500030,1671.750000
31,4943.75000031,-38.12500031,1671.750000
32,4943.75000032,-38.12500032,1671.750000
33,4943.75000033,-38.12500033,1671.750000
34,4943.75000034,-38.12500034,1671.750000
35,4943.75000035,10.00000035,1671.750000
36,4943.75000036,-38.12500036,1671.750000
37,4943.75000037,-38.12500037,1671.750000
38,4943.75000038,-38.12500038,1671.750000
39,4943.75000039,-38.12500039,1671.750000
40,4943.75000040,-38.12500040,1671.750000
41,4943.75000041,10.00000041,1671.750000
42,4943.75000042,-38.12500042,1671.750000
43,4943.75000043,-38.12500043,1671.750000
44,4943.75000044,-38.12500044,1671.750000
45,4943.75000045,10.00000045,1671.750000
46,4943.75000046,-38.12500046,1671.750000
47,4943.75000047,-38.12500047,1671.750000
48,4943.75000048,-38.12500048,1671.750000
49,4943.75000049,-38.12500049,1671.750000
50,4943.75000050,-38.12500050,1671.750000
51,4943.75000051,-38.12500051,1662.125000
52,4943.75000052,-38.12500052,1671.750000
53,4943.75000053,-38.12500053,1671.750000
54,4943.75000054,-38.12500054,1671.750000
55,4943.75000055,-38.12500055,1671.750000
56,4943.75000056,-38.12500056,1662.125000
57,4943.75000057,-38.12500057,1662.125000
58,4943.75000058,-38.12500058,1671.750000
59,4943.75000059,-38.12500059,1662.125000
60,4943.75000060,-38.12500060,1662.125000
61,4943.75000061,-38.12500061,1671.750000
62,4943.75000062,-38.12500062,1662.125000
63,4943.75000063,-38.12500063,1671.750000
64,4943.75000064,10.00000064,1662.125000
65,4943.75000065,-38.12500065,1662.125000
66,4943.75000066,-38.12500066,1662.125000
67,4943.75000067,-38.12500067,1662.125000
68,4943.75000068,-38.12500068,1671.750000
69,4943.75000069,-38.12500069,1662.125000
70,4943.75000070,10.00000070,1662.125000
71,4943.75000071,-38.12500071,1662.125000
72,4943.75000072,-38.12500072,1662.125000
73,4943.75000073,10.00000073,1662.125000
74,4943.75000074,-38.12500074,1662.125000
75,4943.75000075,-38.12500075,1662.125000
76,4943.75000076,-38.12500076,1662.125000
77,4943.75000077,-38.12500077,1662.125000
78,4943.75000078,-38.12500078,1662.125000
79,4943.75000079,-38.12500079,1662.125000
80,4943.75000080,-38.12500080,1662.125000
81,4943.75000081,-38.12500081,1662.125000
82,4943.75000082,-38.12500082,1662.125000
83,4943.75000083,-38.12500083,1662.125000
84,4943.75000084,10.00000084,1662.125000
85,4943.75000085,-38.12500085,1662.125000
86,4943.75000086,-38.12500086,1662.125000
87,4943.75000087,-38.12500087,1662.125000
88,4943.75000088,-38.12500088,1662.125000
89,4943.75000089,-38.12500089,1662.125000
90,4943.75000090,-38.12500090,1662.125000
91,4943.75000091,-38.12500091,1662.125000
92,4943.75000092,-38.12500092,1662.125000
93,4943.75000093,10.00000093,1662.125000
94,4943.75000094,-38.12500094,1662.125000
95,4943.75000095,-38.12500095,1662.125000
96,4943.75000096,-38.12500096,1662.125000
97,4943.75000097,-38.12500097,1662.125000
98,4943.75000098,-38.12500098,1662.125000
99,4943.75000099,-38.12500099,1662.125000
100,4943.750000100,-38.125000100,1662.125000
101,4943.750000101,10.000000101,1662.125000
102,4943.750000102,-38.125000102,1662.125000
103,4943.750000103,-38.125000103,1652.500000
104,4943.750000104,-38.125000104,1662.125000
105,4943.750000105,-38.125000105,1652.500000
106,4943.750000106,-38.125000106,1662.125000
107,4943.750000107,-38.125000107,1662.125000
108,4943.750000108,-38.125000108,1652.500000
109,5041.250000109,-38.125000109,1652.500000
110,4943.750000110,10.000000110,1652.500000
111,4943.750000111,-38.125000111,1652.500000
112,4943.750000112,-38.125000112,1662.125000
113,5041.250000113,-38.125000113,1662.125000
114,4943.750000114,-38.125000114,1652.500000
115,4943.750000115,-38.125000115,1652.500000
116,4943.750000116,-38.125000116,1652.500000
117,4943.750000117,-38.125000117,1652.500000
118,4943.750000118,-38.125000118,1652.500000
119,4943.750000119,-38.125000119,1652.500000
120,5041.250000120,-38.125000120,1652.500000
121,5041.250000121,-38.125000121,1652.500000
122,4943.750000122,-38.125000122,1652.500000
123,4943.750000123,-38.125000123,1652.500000
124,4943.750000124,-38.125000124,1652.500000
125,4943.750000125,-38.125000125,1652.500000
126,4943.750000126,-38.125000126,1652.500000
127,4943.750000127,-38.125000127,1652.500000
128,4943.750000128,-38.125000128,1652.500000
129,4943.750000129,10.000000129,1652.500000
130,5041.250000130,10.000000130,1652.500000
131,4943.750000131,-38.125000131,1652.500000
132,4943.750000132,-38.125000132,1652.500000
133,4943.750000133,-38.125000133,1652.500000
134,4943.750000134,-38.125000134,1652.500000
135,4943.750000135,-38.125000135,1652.500000
136,4943.750000136,-38.125000136,1652.500000
137,4943.750000137,-38.125000137,1652.500000
138,4943.750000138,-38.125000138,1652.500000
139,4943.750000139,-38.125000139,1652.500000
140,4943.750000140,-38.125000140,1642.875000
141,4943.750000141,-38.125000141,1652.500000
142,4943.750000142,-38.125000142,1642.875000
143,4943.750000143,-38.125000143,1652.500000
144,4943.750000144,-38.125000144,1652.500000
145,4943.750000145,-38.125000145,1642.875000
146,4943.750000146,-38.125000146,1652.500000
147,4943.750000147,-38.125000147,1652.500000
148,4943.750000148,-38.125000148,1642.875000
149,4943.750000149,-38.125000149,1652.500000
150,4943.750000150,-38.125000150,1652.500000
151,4943.750000151,-38.125000151,1652.500000
152,4943.750000152,10.000000152,1642.875000
153,4943.750000153,-38.125000153,1652.500000
154,4943.750000154,-38.125000154,1642.875000
155,4943.750000155,-38.125000155,1642.875000
156,4943.750000156,-38.125000156,1652.500000
157,4943.750000157,-38.125000157,1652.500000
158,4943.750000158,-38.125000158,1642.875000
159,4943.750000159,-38.125000159,1642.875000
160,4943.750000160,-38.125000160,1642.875000
161,4943.750000161,10.000000161,1652.500000
162,4943.750000162,-38.125000162,1642.875000
163,4943.750000163,-38.125000163,1642.875000
164,4943.750000164,10.000000164,1642.875000
165,4943.750000165,-38.125000165,1642.875000
166,4943.750000166,-38.125000166,1642.875000
167,4943.750000167,-38.125000167,1642.875000
168,4943.750000168,-38.125000168,1642.875000
169,4943.750000169,-38.125000169,1642.875000
170,4943.750000170,10.000000170,1642.875000
171,4943.750000171,-38.125000171,1642.875000
172,4943.750000172,-38.125000172,1642.875000
173,4943.750000173,10.000000173,1642.875000
174,4943.750000174,-38.125000174,1642.875000
175,4943.750000175,-38.125000175,1642.875000
176,4943.750000176,-38.125000176,1642.875000
177,4943.750000177,-38.125000177,1642.875000
178,4943.750000178,-38.125000178,1642.875000
179,4943.750000179,-38.125000179,1642.875000
180,4943.750000180,-38.125000180,1642.875000
181,4943.750000181,-38.125000181,1642.875000
182,4943.750000182,-38.125000182,1642.875000
183,4943.750000183,-38.125000183,1642.875000
184,4943.750000184,-38.125000184,1642.875000
185,4943.750000185,-38.125000185,1642.875000
186,4943.750000186,-38.125000186,1642.875000
187,4943.750000187,-38.125000187,1642.875000
188,4943.750000188,-38.125000188,1642.875000
189,4943.750000189,-38.125000189,1642.875000
190,4943.750000190,-38.125000190,1642.875000
191,4943.750000191,-38.125000191,1642.875000
192,4943.750000192,-38.125000192,1642.875000
193,4943.750000193,-38.125000193,1642.875000
194,4943.750000194,-38.125000194,1633.250000
195,4943.750000195,-38.125000195,1642.875000
196,4943.750000196,-38.125000196,1642.875000
197,4943.750000197,-38.125000197,1642.875000
198,4943.750000198,-38.125000198,1642.875000
199,4943.750000199,-38.125000199,1633.250000
200,4943.750000200,-38.125000200,1633.250000
201,4943.750000201,-38.125000201,1642.875000
202,4943.750000202,-38.125000202,1633.250000
203,4943.750000203,-38.125000203,1642.875000
204,4943.750000204,10.000000204,1633.250000
205,4943.750000205,-38.125000205,1633.250000
206,4943.750000206,-38.125000206,1642.875000
207,4943.750000207,-38.125000207,1633.250000
208,4943.750000208,-38.125000208,1633.250000
209,4943.750000209,-38.125000209,1633.250000
210,4943.750000210,-38.125000210,1633.250000
211,4943.750000211,-38.125000211,1633.250000
212,4943.750000212,-38.125000212,1633.250000
213,4943.750000213,10.000000213,1633.250000
214,4943.750000214,-38.125000214,1633.250000
215,4943.750000215,10.000000215,1633.250000
216,4943.750000216,-38.125000216,1633.250000
217,4943.750000217,-38.125000217,1633.250000
218,4943.750000218,-38.125000218,1633.250000
219,4943.750000219,-38.125000219,1633.250000
220,4943.750000220,-38.125000220,1633.250000
221,4943.750000221,-38.125000221,1633.250000
222,4943.750000222,-38.125000222,1633.250000
223,4943.750000223,10.000000223,1633.250000
224,4943.750000224,-38.125000224,1633.250000
225,4943.750000225,10.000000225,1633.250000
226,4943.750000226,10.000000226,1633.250000
227,4943.750000227,-38.125000227,1633.250000
228,4943.750000228,-38.125000228,1633.250000
229,4943.750000229,-38.125000229,1633.250000
230,4943.750000230,-38.125000230,1633.250000
231,4943.750000231,-38.125000231,1633.250000
232,4943.750000232,-38.125000232,1633.250000
233,4943.750000233,-38.125000233,1633.250000
234,4943.750000234,-38.125000234,1633.250000
235,4943.750000235,-38.125000235,1633.250000
236,4943.750000236,10.000000236,1623.625000
237,4943.750000237,-38.125000237,1633.250000
238,4943.750000238,-38.125000238,1623.625000
239,4943.750000239,-38.125000239,1633.250000
240,4943.750000240,-38.125000240,1623.625000
241,4943.750000241,-38.125000241,1633.250000
242,4943.750000242,-38.125000242,1633.250000
243,4943.750000243,-38.125000243,1623.625000
244,4943.750000244,-38.125000244,1633.250000
245,4943.750000245,-38.125000245,1623.625000
246,4943.750000246,-38.125000246,1633.250000
247,4943.750000247,-38.125000247,1633.250000
248,4943.750000248,-38.125000248,1623.625000
249,4943.750000249,-38.125000249,1623.625000
250,4943.750000250,-38.125000250,1623.625000
251,4943.750000251,-38.125000251,1623.625000
252,4943.750000252,-38.125000252,1623.625000
253,4943.750000253,-38.125000253,1623.625000
254,4943.750000254,-38.125000254,1623.625000
255,4943.750000255,-38.125000255,1623.625000
256,4943.750000256,-38.125000256,1623.625000
257,4943.750000257,-38.125000257,1623.625000
258,4943.750000258,-38.125000258,1623.625000
259,4943.750000259,-38.125000259,1623.625000
260,4943.750000260,10.000000260,1623.625000
261,4943.750000261,-38.125000261,1623.625000
262,4943.750000262,-38.125000262,1623.625000
263,4943.750000263,10.000000263,1623.625000
264,4943.750000264,10.000000264,1623.625000
265,4943.750000265,-38.125000265,1623.625000
266,4943.750000266,-38.125000266,1623.625000
267,4943.750000267,-38.125000267,1623.625000
268,4943.750000268,-38.125000268,1623.625000
269,4943.750000269,-38.125000269,1623.625000
270,4943.750000270,-38.125000270,1623.625000
271,4943.750000271,-38.125000271,1623.625000
272,4943.750000272,-38.125000272,1623.625000
273,4943.750000273,-38.125000273,1623.625000
274,4943.750000274,-38.125000274,1623.625000
275,4943.750000275,-38.125000275,1623.625000
276,4943.750000276,-38.125000276,1614.000000
277,4943.750000277,-38.125000277,1623.625000
278,4943.750000278,-38.125000278,1614.000000
279,4943.750000279,-38.125000279,1623.625000
280,4943.750000280,-38.125000280,1614.000000
281,4943.750000281,-38.125000281,1623.625000
282,4943.750000282,-38.125000282,1623.625000
283,4943.750000283,10.000000283,1623.625000
284,4943.750000284,-38.125000284,1614.000000
285,4943.750000285,-38.125000285,1614.000000
286,4943.750000286,-38.125000286,1614.000000
287,4943.750000287,-38.125000287,1614.000000
288,4943.750000288,-38.125000288,1614.000000
289,4943.750000289,-38.125000289,1614.000000
290,4943.750000290,-38.125000290,1614.000000
291,4943.750000291,-38.125000291,1614.000000
292,4943.750000292,10.000000292,1614.000000
293,4943.750000293,-38.125000293,1614.000000
294,4943.750000294,-38.125000294,1614.000000
295,4943.750000295,-38.125000295,1614.000000
296,4943.750000296,10.000000296,1614.000000
297,4943.750000297,-38.125000297,1623.625000
298,4943.750000298,-38.125000298,1614.000000
299,4943.750000299,10.000000299,1614.000000
300,4943.750000300,-38.125000300,1614.000000
301,4943.750000301,-38.125000301,1614.000000
302,4943.750000302,-38.125000302,1614.000000
303,4943.750000303,-38.125000303,1614.000000
304,4943.750000304,-38.125000304,1614.000000
305,4943.750000305,-38.125000305,1614.000000
306,4943.750000306,-38.125000306,1614.000000
307,4943.750000307,10.000000307,1614.000000
308,4943.750000308,-38.125000308,1614.000000
309,4943.750000309,-38.125000309,1614.000000
310,4943.750000310,-38.125000310,1614.000000
311,4943.750000311,-38.125000311,1614.000000
312,4943.750000312,-38.125000312,1614.000000
313,4943.750000313,-38.125000313,1614.000000
314,4943.750000314,-38.125000314,1614.000000
315,4943.750000315,-38.125000315,1604.375000
316,4943.750000316,-38.125000316,1604.375000
317,4943.750000317,-38.125000317,1614.000000
318,4943.750000318,10.000000318,1614.000000
319,4943.750000319,-38.125000319,1604.375000
320,4943.750000320,-38.125000320,1604.375000
321,4943.750000321,-38.125000321,1604.375000
322,4943.750000322,-38.125000322,1614.000000
323,4943.750000323,-38.125000323,1614.000000
324,4943.750000324,-38.125000324,1604.375000
325,4943.750000325,-38.125000325,1604.375000
326,4943.750000326,-38.125000326,1604.375000
327,4943.750000327,10.000000327,1604.375000
328,4943.750000328,-38.125000328,1604.375000
329,4943.750000329,-38.125000329,1604.375000
330,4943.750000330,-38.125000330,1604.375000
331,4943.750000331,-38.125000331,1604.375000
332,4943.750000332,-38.125000332,1604.375000
333,4943.750000333,10.000000333,1604.375000
334,4943.750000334,-38.125000334,1604.375000
335,4943.750000335,-38.125000335,1604.375000
336,4943.750000336,-38.125000336,1604.375000
337,4943.750000337,-38.125000337,1604.375000
338,4943.750000338,-38.125000338,1604.375000
339,4943.750000339,10.000000339,1604.375000
340,4943.750000340,-38.125000340,1604.375000
341,4943.750000341,-38.125000341,1604.375000
342,4943.750000342,-38.125000342,1604.375000
343,5041.250000343,-38.125000343,1604.375000
344,4943.750000344,-38.125000344,1604.375000
345,4943.750000345,-38.125000345,1604.375000
346,4943.750000346,-38.125000346,1594.750000
347,4943.750000347,-38.125000347,1604.375000
348,4943.750000348,-38.125000348,1604.375000
349,4943.750000349,-38.125000349,1604.375000
350,4943.750000350,-38.125000350,1594.750000
351,4943.750000351,-38.125000351,1604.375000
352,4943.750000352,-38.125000352,1604.375000
353,4943.750000353,-38.125000353,1604.375000
354,4943.750000354,-38.125000354,1594.750000
355,4943.750000355,-38.125000355,1594.750000
356,4943.750000356,-38.125000356,1604.375000
357,4943.750000357,-38.125000357,1594.750000
358,4943.750000358,10.000000358,1594.750000
359,4943.750000359,-38.125000359,1604.375000
360,4943.750000360,-38.125000360,1604.375000
361,4943.750000361,-38.125000361,1594.750000
362,4943.750000362,-38.125000362,1604.375000
363,4943.750000363,-38.125000363,1594.750000
364,4943.750000364,-38.125000364,1594.750000
365,4943.750000365,-38.125000365,1594.750000
366,4943.750000366,-38.125000366,1604.375000
367,4943.750000367,-38.125000367,1594.750000
368,4943.750000368,-38.125000368,1594.750000
369,4943.750000369,-38.125000369,1594.750000
370,4943.750000370,-38.125000370,1594.750000
371,4943.750000371,-38.125000371,1594.750000
372,4943.750000372,-38.125000372,1594.750000
373,4943.750000373,-38.125000373,1594.750000
374,4943.750000374,10.000000374,1594.750000
375,4943.750000375,-38.125000375,1594.750000
376,4943.750000376,-38.125000376,1594.750000
377,4943.750000377,-38.125000377,1594.750000
378,4943.750000378,-38.125000378,1594.750000
379,4943.750000379,-38.125000379,1594.750000
380,4943.750000380,-38.125000380,1594.750000
381,4943.750000381,-38.125000381,1594.750000
382,4943.750000382,-38.125000382,1594.750000
383,4943.750000383,-38.125000383,1585.125000
384,4943.750000384,-38.125000384,1594.750000
385,4943.750000385,-38.125000385,1594.750000
386,4943.750000386,-38.125000386,1585.125000
387,4943.750000387,10.000000387,1594.750000
388,4943.750000388,-38.125000388,1594.750000
389,4943.750000389,-38.125000389,1594.750000
390,4943.750000390,-38.125000390,1594.750000
391,4943.750000391,-38.125000391,1594.750000
392,4943.750000392,-38.125000392,1594.750000
393,4943.750000393,-38.125000393,1594.750000
394,4943.750000394,-38.125000394,1594.750000
395,4943.750000395,-38.125000395,1594.750000
396,4943.750000396,-38.125000396,1594.750000
397,4943.750000397,-38.125000397,1585.125000
398,4943.750000398,-38.125000398,1585.125000
399,4943.750000399,-38.125000399,1594.750000
400,4943.750000400,-38.125000400,1585.125000
401,4943.750000401,-38.125000401,1585.125000
402,4943.750000402,-38.125000402,1585.125000
403,4943.750000403,10.000000403,1594.750000
404,4943.750000404,10.000000404,1585.125000
405,4943.750000405,-38.125000405,1594.750000
406,4943.750000406,10.000000406,1585.125000
407,4943.750000407,-38.125000407,1585.125000
408,4943.750000408,-38.125000408,1585.125000
409,4943.750000409,-38.125000409,1585.125000
410,4943.750000410,10.000000410,1585.125000
411,4943.750000411,-38.125000411,1585.125000
412,4943.750000412,-38.125000412,1585.125000
413,4943.750000413,-38.125000413,1585.125000
414,4943.750000414,-38.125000414,1585.125000
415,4943.750000415,-38.125000415,1585.125000
416,4943.750000416,-38.125000416,1585.125000
417,4943.750000417,-38.125000417,1585.125000
418,4943.750000418,-38.125000418,1585.125000
419,4943.750000419,-38.125000419,1585.125000
420,4943.750000420,-38.125000420,1585.125000
421,4943.750000421,-38.125000421,1585.125000
422,4943.750000422,-38.125000422,1585.125000
423,4943.750000423,-38.125000423,1585.125000
424,4943.750000424,-38.125000424,1585.125000
425,4943.750000425,10.000000425,1585.125000
426,4943.750000426,-38.125000426,1585.125000
427,4943.750000427,-38.125000427,1585.125000
428,4943.750000428,-38.125000428,1585.125000
429,4943.750000429,-38.125000429,1585.125000
430,4943.750000430,-38.125000430,1585.125000
431,4943.750000431,-38.125000431,1575.500000
432,4943.750000432,-38.125000432,1585.125000
433,4943.750000433,-38.125000433,1585.125000
434,4943.750000434,-38.125000434,1575.500000
435,4943.750000435,-38.125000435,1575.500000
436,4943.750000436,-38.125000436,1575.500000
437,4943.750000437,-38.125000437,1585.125000
438,4943.750000438,-38.125000438,1585.125000
439,4943.750000439,-38.125000439,1575.500000
440,4943.750000440,-38.125000440,1575.500000
441,4943.750000441,-38.125000441,1575.500000
442,4943.750000442,-38.125000442,1575.500000
