experimentaldata/6kv_discharge.csv

Channel              :,CH1,CH2
Frequency            :,  ?,  ?
Period               :,  ?,  ?
PK-PK                :,10.14V?,4.227V
Average              :,2.207V?,-39.11mV
Vertical pos         :,1.000000mV,1.000000mV
Probe attenuation    :,1X,1X
Voltage per ADC value:,0.312500mV,0.312500mV
Time interval        :,0.00200uS,0.00200uS

index,CH1_Voltage(mV),CH2_Voltage(mV)
1,6010.0000001,12.500000
2,5912.5000002,12.500000
3,5912.5000003,-83.750000
4,5912.5000004,12.500000
5,5912.5000005,-83.750000
6,5912.5000006,12.500000
7,5912.5000007,-83.750000
8,5912.5000008,12.500000
9,6010.0000009,-83.750000
10,5912.50000010,12.500000
11,5912.50000011,12.500000
12,5912.50000012,-83.750000
13,5912.50000013,12.500000
14,6010.00000014,12.500000
15,5912.50000015,-83.750000
16,5912.50000016,12.500000
17,5912.50000017,-83.750000
18,5912.50000018,12.500000
19,5912.50000019,-83.750000
20,5912.50000020,-83.750000
21,5912.50000021,12.500000
22,5912.50000022,12.500000
23,5912.50000023,12.500000
24,5912.50000024,-83.750000
25,5912.50000025,12.500000
26,5912.50000026,12.500000
27,6010.00000027,-83.750000
28,5912.50000028,12.500000
29,5912.50000029,12.500000
30,5912.50000030,12.500000
31,5912.50000031,-83.750000
32,5912.50000032,12.500000
33,5912.50000033,12.500000
34,5912.50000034,12.500000
35,5912.50000035,-83.750000
36,5912.50000036,-83.750000
37,5912.50000037,12.500000
38,5912.50000038,12.500000
39,5912.50000039,-83.750000
40,5912.50000040,12.500000
41,5912.50000041,12.500000
42,5912.50000042,-83.750000
43,6010.00000043,-83.750000
44,5912.50000044,-83.750000
45,6010.00000045,12.500000
46,5912.50000046,12.500000
47,6010.00000047,-83.750000
48,5912.50000048,-83.750000
49,5912.50000049,-83.750000
50,5912.50000050,12.500000
51,6010.00000051,-83.750000
52,5912.50000052,-83.750000
53,5912.50000053,12.500000
54,5912.50000054,-83.750000
55,5912.50000055,12.500000
56,5912.50000056,-83.750000
57,6010.00000057,12.500000
58,5912.50000058,12.500000
59,5912.50000059,-83.750000
60,5912.50000060,12.500000
61,6010.00000061,12.500000
62,5912.50000062,12.500000
63,5912.50000063,-83.750000
64,5912.50000064,12.500000
65,6010.00000065,12.500000
66,5912.50000066,-83.750000
67,5912.50000067,12.500000
68,5912.50000068,12.500000
69,5912.50000069,12.500000
70,6010.00000070,-83.750000
71,5912.50000071,12.500000
72,5912.50000072,12.500000
73,5912.50000073,12.500000
74,5912.50000074,-83.750000
75,6010.00000075,12.500000
76,5912.50000076,12.500000
77,5912.50000077,-83.750000
78,5912.50000078,12.500000
79,5912.50000079,-83.750000
80,5912.50000080,-83.750000
81,5912.50000081,-83.750000
82,5912.50000082,12.500000
83,6010.00000083,-83.750000
84,5912.50000084,12.500000
85,6010.00000085,-83.750000
86,5912.50000086,12.500000
87,5912.50000087,12.500000
88,5912.50000088,12.500000
89,5912.50000089,-83.750000
90,5912.50000090,-83.750000
91,5912.50000091,-83.750000
92,5912.50000092,-83.750000
93,5912.50000093,-83.750000
94,5912.50000094,12.500000
95,5912.50000095,12.500000
96,5912.50000096,-83.750000
97,5912.50000097,12.500000
98,5912.50000098,12.500000
99,5912.50000099,12.500000
100,5912.500000100,-83.750000
101,5912.500000101,12.500000
102,5912.500000102,12.500000
103,5912.500000103,-83.750000
104,5912.500000104,12.500000
105,6010.000000105,-83.750000
106,5912.500000106,12.500000
107,5912.500000107,-83.750000
108,5912.500000108,12.500000
109,5912.500000109,12.500000
110,5912.500000110,12.500000
111,5912.500000111,-83.750000
112,5912.500000112,12.500000
113,5912.500000113,-83.750000
114,5912.500000114,12.500000
115,5912.500000115,-83.750000
116,5912.500000116,12.500000
117,5912.500000117,-83.750000
118,5912.500000118,12.500000
119,6010.000000119,12.500000
120,5912.500000120,-83.750000
121,5912.500000121,12.500000
122,5912.500000122,-83.750000
123,5912.500000123,-83.750000
124,6010.000000124,-83.750000
125,5912.500000125,-83.750000
126,5912.500000126,-83.750000
127,5912.500000127,-83.750000
128,5912.500000128,-83.750000
129,6010.000000129,12.500000
130,5912.500000130,12.500000
131,5912.500000131,-83.750000
132,6010.000000132,12.500000
133,5912.500000133,-83.750000
134,5912.500000134,12.500000
135,5912.500000135,-83.750000
136,5912.500000136,12.500000
137,5912.500000137,12.500000
138,5912.500000138,12.500000
139,5912.500000139,-83.750000
140,5912.500000140,-83.750000
141,5912.500000141,-83.750000
142,5912.500000142,12.500000
143,6010.000000143,12.500000
144,5912.500000144,12.500000
145,5912.500000145,-83.750000
146,5912.500000146,12.500000
147,5912.500000147,-83.750000
148,5912.500000148,12.500000
149,5912.500000149,12.500000
150,5912.500000150,12.500000
151,5912.500000151,-83.750000
152,5912.500000152,12.500000
153,5912.500000153,-83.750000
154,6010.000000154,12.500000
155,5912.500000155,-83.750000
156,5912.500000156,12.500000
157,5912.500000157,-83.750000
158,5912.500000158,12.500000
159,5912.500000159,-83.750000
160,5912.500000160,12.500000
161,5912.500000161,12.500000
162,5912.500000162,12.500000
163,6010.000000163,-83.750000
164,5912.500000164,12.500000
165,5912.500000165,12.500000
166,5912.500000166,12.500000
167,5912.500000167,-83.750000
168,5912.500000168,12.500000
169,5912.500000169,12.500000
170,5912.500000170,12.500000
171,5912.500000171,12.500000
172,5912.500000172,12.500000
173,6010.000000173,12.500000
174,5912.500000174,12.500000
175,5912.500000175,-83.750000
176,5912.500000176,-83.750000
177,5912.500000177,12.500000
178,6010.000000178,12.500000
179,5912.500000179,12.500000
180,5912.500000180,-83.750000
181,5912.500000181,-83.750000
182,6010.000000182,12.500000
183,5912.500000183,-83.750000
184,5912.500000184,12.500000
185,5912.500000185,-83.750000
186,6010.000000186,12.500000
187,6010.000000187,-83.750000
188,5912.500000188,12.500000
189,5912.500000189,12.500000
190,5912.500000190,12.500000
191,5912.500000191,-83.750000
192,5912.500000192,12.500000
193,6010.000000193,-83.750000
194,5912.500000194,12.500000
195,5912.500000195,-83.750000
196,5912.500000196,12.500000
197,5912.500000197,12.500000
198,5912.500000198,12.500000
199,6010.000000199,-83.750000
200,5912.500000200,12.500000
201,5912.500000201,12.500000
202,5912.500000202,12.500000
203,5912.500000203,-83.750000
204,5912.500000204,12.500000
205,5912.500000205,12.500000
206,5912.500000206,12.500000
207,6010.000000207,12.500000
208,5912.500000208,-83.750000
209,6010.000000209,-83.750000
210,5912.500000210,12.500000
211,6010.000000211,-83.750000
212,5912.500000212,12.500000
213,6010.000000213,12.500000
214,6010.000000214,12.500000
215,5912.500000215,12.500000
216,5912.500000216,12.500000
217,5912.500000217,-83.750000
218,5912.500000218,12.500000
219,5912.500000219,-83.750000
220,5912.500000220,12.500000
221,6010.000000221,12.500000
222,5912.500000222,12.500000
223,5912.500000223,-83.750000
224,5912.500000224,12.500000
225,5912.500000225,12.500000
226,5912.500000226,12.500000
227,5912.500000227,-83.750000
228,5912.500000228,-83.750000
229,6010.000000229,12.500000
230,5912.500000230,-83.750000
231,6010.000000231,-83.750000
232,5912.500000232,12.500000
233,6010.000000233,-83.750000
234,5912.500000234,12.500000
235,5912.500000235,12.500000
236,5912.500000236,-83.750000
237,5912.500000237,12.500000
238,5912.500000238,12.500000
239,5912.500000239,12.500000
240,5912.500000240,-83.750000
241,5912.500000241,-83.750000
242,5912.500000242,12.500000
243,5912.500000243,12.500000
244,5912.500000244,-83.750000
245,5912.500000245,12.500000
246,5912.500000246,12.500000
247,5912.500000247,-83.750000
248,5912.500000248,12.500000
249,6010.000000249,12.500000
250,5912.500000250,-83.750000
251,5912.500000251,-83.750000
252,5912.500000252,-83.750000
253,5912.500000253,12.500000
254,5912.500000254,12.500000
255,5912.500000255,12.500000
256,5912.500000256,-83.750000
257,5912.500000257,12.500000
258,5912.500000258,12.500000
259,5912.500000259,-83.750000
260,5912.500000260,12.500000
261,6010.000000261,12.500000
262,5912.500000262,-83.750000
263,6010.000000263,-83.750000
264,5912.500000264,12.500000
265,5912.500000265,-83.750000
266,5912.500000266,12.500000
267,6010.000000267,-83.750000
268,5912.500000268,12.500000
269,5912.500000269,-83.750000
270,5912.500000270,12.500000
271,5912.500000271,-83.750000
272,5912.500000272,12.500000
273,5912.500000273,-83.750000
274,5912.500000274,12.500000
275,5912.500000275,12.500000
276,5912.500000276,12.500000
277,5912.500000277,12.500000
278,5912.500000278,12.500000
279,5912.500000279,-83.750000
280,5912.500000280,-83.750000
281,6010.000000281,12.500000
282,5912.500000282,-83.750000
283,5912.500000283,12.500000
284,5912.500000284,12.500000
285,5912.500000285,12.500000
286,5912.500000286,-83.750000
287,5912.500000287,12.500000
288,5912.500000288,12.500000
289,6010.000000289,-83.750000
290,5912.500000290,12.500000
291,5912.500000291,-83.750000
292,5912.500000292,12.500000
293,6010.000000293,12.500000
294,5912.500000294,12.500000
295,5912.500000295,-83.750000
296,5912.500000296,-83.750000
297,5912.500000297,12.500000
298,5912.500000298,-83.750000
299,5912.500000299,12.500000
300,5912.500000300,12.500000
301,6010.000000301,-83.750000
302,5912.500000302,12.500000
303,5912.500000303,-83.750000
304,5912.500000304,-83.750000
305,5912.500000305,12.500000
306,5912.500000306,-83.750000
307,6010.000000307,12.500000
308,5912.500000308,12.500000
309,6010.000000309,-83.750000
310,5912.500000310,12.500000
311,6010.000000311,-83.750000
312,5912.500000312,-83.750000
313,5912.500000313,-83.750000
314,5912.500000314,12.500000
315,5912.500000315,-83.750000
316,5912.500000316,12.500000
317,5912.500000317,-83.750000
318,6010.000000318,12.500000
319,5912.500000319,-83.750000
320,5912.500000320,12.500000
321,5912.500000321,-83.750000
322,6010.000000322,12.500000
323,6010.000000323,-83.750000
324,5912.500000324,12.500000
325,6010.000000325,-83.750000
326,5912.500000326,12.500000
327,5912.500000327,-83.750000
328,5912.500000328,12.500000
329,6010.000000329,-83.750000
330,5912.500000330,12.500000
331,5912.500000331,-83.750000
332,6010.000000332,12.500000
333,5912.500000333,-83.750000
334,6010.000000334,12.500000
335,5912.500000335,-83.750000
336,5912.500000336,12.500000
337,5912.500000337,12.500000
338,5912.500000338,12.500000
339,6010.000000339,-83.750000
340,5912.500000340,-83.750000
341,5912.500000341,12.500000
342,5912.500000342,-83.750000
343,6010.000000343,-83.750000
344,5912.500000344,12.500000
345,6010.000000345,-83.750000
346,5912.500000346,12.500000
347,5912.500000347,-83.750000
348,5912.500000348,12.500000
349,5912.500000349,12.500000
350,6010.000000350,-83.750000
351,6010.000000351,12.500000
352,5912.500000352,12.500000
353,5912.500000353,12.500000
354,6010.000000354,12.500000
355,5912.500000355,-83.750000
356,5912.500000356,12.500000
357,5912.500000357,12.500000
358,5912.500000358,-83.750000
359,5912.500000359,-83.750000
360,5912.500000360,-83.750000
361,5912.500000361,-83.750000
362,5912.500000362,12.500000
363,5912.500000363,-83.750000
364,5912.500000364,12.500000
365,5912.500000365,-83.750000
366,5912.500000366,-83.750000
367,5912.500000367,-83.750000
368,5912.500000368,-83.750000
369,5912.500000369,-83.750000
370,5912.500000370,12.500000
371,5912.500000371,-83.750000
372,5912.500000372,12.500000
373,5912.500000373,12.500000
374,5912.500000374,12.500000
375,6010.000000375,12.500000
376,5912.500000376,12.500000
377,6010.000000377,12.500000
378,5912.500000378,12.500000
379,6010.000000379,-83.750000
380,5912.500000380,12.500000
381,5912.500000381,-83.750000
382,5912.500000382,12.500000
383,5912.500000383,-83.750000
384,5912.500000384,12.500000
385,6010.000000385,12.500000
386,5912.500000386,12.500000
387,5912.500000387,12.500000
388,6010.000000388,12.500000
389,6010.000000389,12.500000
390,5912.500000390,12.500000
391,5912.500000391,12.500000
392,5912.500000392,12.500000
393,6010.000000393,-83.750000
394,5912.500000394,-83.750000
395,6010.000000395,-83.750000
396,5912.500000396,12.500000
397,5912.500000397,-83.750000
398,5912.500000398,-83.750000
399,5912.500000399,12.500000
400,5912.500000400,12.500000
401,5912.500000401,-83.750000
402,5912.500000402,12.500000
403,5912.500000403,12.500000
404,6010.000000404,12.500000
405,6010.000000405,12.500000
406,6010.000000406,12.500000
407,5912.500000407,12.500000
408,5912.500000408,12.500000
409,5912.500000409,-83.750000
410,5912.500000410,12.500000
411,5912.500000411,-83.750000
412,6010.000000412,12.500000
413,5912.500000413,-83.750000
414,5912.500000414,12.500000
415,5912.500000415,12.500000
416,5912.500000416,-83.750000
417,6010.000000417,12.500000
418,5912.500000418,12.500000
419,5912.500000419,-83.750000
420,5912.500000420,12.500000
421,5912.500000421,12.500000
422,5912.500000422,-83.750000
423,5912.500000423,12.500000
424,5912.500000424,12.500000
425,5912.500000425,12.500000
426,5912.500000426,12.500000
427,5912.500000427,-83.750000
428,5912.500000428,12.500000
429,6010.000000429,-83.750000
430,5912.500000430,-83.750000
431,5912.500000431,12.500000
432,5912.500000432,-83.750000
433,5912.500000433,-83.750000
434,5912.500000434,12.500000
435,6010.000000435,12.500000
436,5912.500000436,12.500000
437,6010.000000437,-83.750000
438,5912.500000438,-83.750000
439,5912.500000439,12.500000
440,5912.500000440,12.500000
441,5912.500000441,-83.750000
442,5912.500000442,12.500000
443,5912.500000443,-83.750000
444,5912.500000444,12.500000
445,5912.500000445,12.500000
446,5912.500000446,12.500000
447,6010.000000447,-83.750000
448,5912.500000448,-83.750000
449,5912.500000449,-83.750000
450,5912.500000450,12.500000
451,6010.000000451,12.500000
452,5912.500000452,-83.750000
453,5912.500000453,-83.750000
454,5912.500000454,12.500000
455,6010.000000455,12.500000
456,5912.500000456,-83.750000
457,6010.000000457,12.500000
458,5912.500000458,-83.750000
459,5912.500000459,-83.750000
460,5912.500000460,12.500000
461,5912.500000461,12.500000
462,5912.500000462,-83.750000
463,6010.000000463,12.500000
464,5912.500000464,-83.750000
465,5912.500000465,12.500000
466,6010.000000466,12.500000
467,5912.500000467,-83.750000
468,5912.500000468,-83.750000
469,5912.500000469,12.500000
470,5912.500000470,-83.750000
471,5912.500000471,12.500000
472,5912.500000472,12.500000
473,5912.500000473,12.500000
474,5912.500000474,12.500000
475,5912.500000475,12.500000
476,5912.500000476,-83.750000
477,5912.500000477,12.500000
478,5912.500000478,-83.750000
479,5912.500000479,12.500000
480,5912.500000480,-83.750000
481,6010.000000481,12.500000
482,5912.500000482,-83.750000
483,5912.500000483,12.500000
484,5912.500000484,12.500000
485,5912.500000485,12.500000
486,5912.500000486,12.500000
487,5912.500000487,-83.750000
488,5912.500000488,12.500000
489,5912.500000489,-83.750000
490,5912.500000490,-83.750000
491,6010.000000491,12.500000
492,5912.500000492,-83.750000
493,5912.500000493,12.500000
494,5912.500000494,-83.750000
495,6010.000000495,12.500000
496,5912.500000496,-83.750000
497,5912.500000497,12.500000
498,5912.500000498,12.500000
499,5912.500000499,-83.750000
500,5912.500000500,12.500000
501,6010.000000501,12.500000
502,5912.500000502,12.500000
503,6010.000000503,-83.750000
504,5912.500000504,12.500000
505,5912.500000505,12.500000
506,5912.500000506,12.500000
507,5912.500000507,-83.750000
508,5912.500000508,12.500000
509,5912.500000509,-83.750000
510,6010.000000510,12.500000
511,5912.500000511,12.500000
512,5912.500000512,-83.750000
513,5912.500000513,12.500000
514,5912.500000514,12.500000
515,6010.000000515,-83.750000
516,5912.500000516,12.500000
517,6010.000000517,-83.750000
518,5912.500000518,12.500000
519,5912.500000519,-83.750000
520,5912.500000520,-83.750000
521,5912.500000521,-83.750000
522,5912.500000522,12.500000
523,5912.500000523,-83.750000
524,5912.500000524,12.500000
525,5912.500000525,-83.750000
526,5912.500000526,12.500000
527,5912.500000527,-83.750000
528,5912.500000528,12.500000
529,5912.500000529,12.500000
530,6010.000000530,12.500000
531,6010.000000531,-83.750000
532,5912.500000532,12.500000
533,6010.000000533,-83.750000
534,5912.500000534,12.500000
535,6010.000000535,-83.750000
536,5912.500000536,-83.750000
537,5912.500000537,12.500000
538,5912.500000538,12.500000
539,6010.000000539,12.500000
540,5912.500000540,12.500000
541,5912.500000541,12.500000
542,5912.500000542,12.500000
543,6010.000000543,12.500000
544,5912.500000544,-83.750000
545,6010.000000545,12.500000
546,5912.500000546,12.500000
547,5912.500000547,-83.750000
548,5912.500000548,12.500000
549,5912.500000549,12.500000
550,5912.500000550,-83.750000
551,5912.500000551,-83.750000
552,5912.500000552,12.500000
553,5912.500000553,12.500000
554,5912.500000554,-83.750000
555,5912.500000555,-83.750000
556,5912.500000556,12.500000
557,5912.500000557,12.500000
558,5912.500000558,12.500000
559,5912.500000559,-83.750000
560,5912.500000560,12.500000
561,5912.500000561,12.500000
562,5912.500000562,-83.750000
563,5912.500000563,12.500000
564,5912.500000564,-83.750000
565,5912.500000565,12.500000
566,6010.000000566,12.500000
567,5912.500000567,12.500000
568,5912.500000568,-83.750000
569,5912.500000569,-83.750000
570,6010.000000570,-83.750000
571,5912.500000571,-83.750000
572,5912.500000572,12.500000
573,6010.000000573,-83.750000
574,5912.500000574,-83.750000
575,6010.000000575,-83.750000
576,5912.500000576,12.500000
577,5912.500000577,12.500000
578,6010.000000578,12.500000
579,5912.500000579,-83.750000
580,5912.500000580,-83.750000
581,6010.000000581,12.500000
582,5912.500000582,12.500000
583,5912.500000583,-83.750000
584,5912.500000584,12.500000
585,6010.000000585,-83.750000
586,5912.500000586,12.500000
587,5912.500000587,-83.750000
588,5912.500000588,12.500000
589,5912.500000589,-83.750000
590,5912.500000590,12.500000
591,5912.500000591,-83.750000
592,5912.500000592,-83.750000
593,5912.500000593,12.500000
594,6010.000000594,12.500000
595,5912.500000595,12.500000
596,5912.500000596,12.500000
597,6010.000000597,12.500000
598,5912.500000598,12.500000
599,5912.500000599,-83.750000
600,5912.500000600,12.500000
601,5912.500000601,12.500000
602,5912.500000602,-83.750000
603,5912.500000603,-83.750000
604,5912.500000604,12.500000
605,5912.500000605,-83.750000
606,5912.500000606,12.500000
607,6010.000000607,12.500000
608,5912.500000608,-83.750000
609,5912.500000609,-83.750000
610,5912.500000610,12.500000
611,5912.500000611,12.500000
612,5912.500000612,-83.750000
613,5912.500000613,12.500000
614,5912.500000614,12.500000
615,6010.000000615,-83.750000
616,5912.500000616,12.500000
617,6010.000000617,-83.750000
618,5912.500000618,12.500000
619,5912.500000619,12.500000
620,5912.500000620,12.500000
621,5912.500000621,12.500000
622,5912.500000622,-83.750000
623,6010.000000623,-83.750000
624,5912.500000624,-83.750000
625,6010.000000625,-83.750000
626,5912.500000626,12.500000
627,5912.500000627,-83.750000
628,5912.500000628,12.500000
629,5912.500000629,12.500000
630,5912.500000630,12.500000
631,5912.500000631,-83.750000
632,5912.500000632,12.500000
633,5912.500000633,12.500000
634,6010.000000634,12.500000
635,5912.500000635,-83.750000
636,5912.500000636,-83.750000
637,5912.500000637,12.500000
638,5912.500000638,12.500000
639,6010.000000639,12.500000
640,5912.500000640,12.500000
641,6010.000000641,12.500000
642,5912.500000642,12.500000
643,5912.500000643,-83.750000
644,5912.500000644,12.500000
645,5912.500000645,-83.750000
646,5912.500000646,12.500000
647,6010.000000647,-83.750000
648,5912.500000648,12.500000
649,5912.500000649,-83.750000
650,5912.500000650,-83.750000
651,6010.000000651,-83.750000
652,5912.500000652,12.500000
653,5912.500000653,12.500000
654,6010.000000654,12.500000
655,5912.500000655,-83.750000
656,6010.000000656,-83.750000
657,5912.500000657,-83.750000
658,5912.500000658,12.500000
659,5912.500000659,-83.750000
660,5912.500000660,-83.750000
661,5912.500000661,12.500000
662,5912.500000662,12.500000
663,6010.000000663,12.500000
664,5912.500000664,12.500000
665,5912.500000665,12.500000
666,5912.500000666,-83.750000
667,5912.500000667,12.500000
668,5912.500000668,-83.750000
669,6010.000000669,12.500000
670,5912.500000670,-83.750000
671,6010.000000671,12.500000
672,5912.500000672,12.500000
673,5912.500000673,-83.750000
674,5912.500000674,12.500000
