experimentaldata/8kv_discharge.csv

Channel              :,CH1,CH2
Frequency            :,  ?,  ?
Period               :,  ?,  ?
PK-PK                :,11.50V?,6.534V
Average              :,4.247V?,-144.3mV
Vertical pos         :,1.000000mV,1.000000mV
Probe attenuation    :,1X,1X
Voltage per ADC value:,0.312500mV,0.312500mV
Time interval        :,0.00200uS,0.00200uS

index,CH1_Voltage(mV),CH2_Voltage(mV)
1,8043.7500001,12.500000
2,8043.7500002,12.500000
3,8043.7500003,12.500000
4,7947.5000004,12.500000
5,8043.7500005,12.500000
6,8043.7500006,12.500000
7,8043.7500007,12.500000
8,8043.7500008,-83.750000
9,8043.7500009,12.500000
10,8043.75000010,-83.750000
11,8043.75000011,12.500000
12,8043.75000012,12.500000
13,8043.75000013,12.500000
14,8043.75000014,12.500000
15,7947.50000015,12.500000
16,8043.75000016,12.500000
17,8043.75000017,12.500000
18,8043.75000018,12.500000
19,8043.75000019,12.500000
20,8043.75000020,12.500000
21,8043.75000021,12.500000
22,8043.75000022,-83.750000
23,8043.75000023,12.500000
24,8043.75000024,12.500000
25,8043.75000025,12.500000
26,8043.75000026,-83.750000
27,8043.75000027,12.500000
28,8043.75000028,12.500000
29,8043.75000029,12.500000
30,8043.75000030,-83.750000
31,8043.75000031,12.500000
32,8043.75000032,12.500000
33,8043.75000033,-83.750000
34,8043.75000034,-83.750000
35,8043.75000035,12.500000
36,8043.75000036,12.500000
37,8043.75000037,12.500000
38,8043.75000038,12.500000
39,8043.75000039,12.500000
40,8043.75000040,12.500000
41,8043.75000041,-83.750000
42,8043.75000042,-83.750000
43,8043.75000043,12.500000
44,8043.75000044,12.500000
45,8043.75000045,12.500000
46,8043.75000046,-83.750000
47,8043.75000047,12.500000
48,8043.75000048,-83.750000
49,8043.75000049,12.500000
50,8043.75000050,12.500000
51,8043.75000051,12.500000
52,8043.75000052,12.500000
53,8043.75000053,12.500000
54,8043.75000054,-83.750000
55,8043.75000055,12.500000
56,8043.75000056,-83.750000
57,8043.75000057,12.500000
58,8043.75000058,12.500000
59,8043.75000059,12.500000
60,8043.75000060,-83.750000
61,8043.75000061,12.500000
62,8043.75000062,-83.750000
63,8043.75000063,12.500000
64,8043.75000064,-83.750000
65,8043.75000065,12.500000
66,8043.75000066,-83.750000
67,8043.75000067,12.500000
68,8043.75000068,12.500000
69,8043.75000069,12.500000
70,8043.75000070,-83.750000
71,8043.75000071,12.500000
72,8043.75000072,12.500000
73,8043.75000073,12.500000
74,8043.75000074,-83.750000
75,8043.75000075,12.500000
76,8043.75000076,-83.750000
77,8043.75000077,12.500000
78,8043.75000078,12.500000
79,8043.75000079,12.500000
80,8043.75000080,12.500000
81,8043.75000081,12.500000
82,8043.75000082,12.500000
83,8043.75000083,12.500000
84,8043.75000084,12.500000
85,8043.75000085,12.500000
86,8043.75000086,12.500000
87,8043.75000087,-83.750000
88,8043.75000088,12.500000
89,8043.75000089,12.500000
90,8043.75000090,-83.750000
91,8043.75000091,12.500000
92,8043.75000092,12.500000
93,7947.50000093,12.500000
94,8043.75000094,-83.750000
95,8043.75000095,12.500000
96,8043.75000096,12.500000
97,8043.75000097,12.500000
98,8043.75000098,12.500000
99,8043.75000099,12.500000
100,8043.750000100,-83.750000
101,8043.750000101,12.500000
102,8043.750000102,-83.750000
103,8043.750000103,12.500000
104,8043.750000104,-83.750000
105,8043.750000105,12.500000
106,8043.750000106,-83.750000
107,8043.750000107,12.500000
108,8043.750000108,12.500000
109,8043.750000109,-83.750000
110,8043.750000110,-83.750000
111,8043.750000111,12.500000
112,8043.750000112,12.500000
113,8043.750000113,-83.750000
114,8043.750000114,-83.750000
115,8043.750000115,12.500000
116,8043.750000116,-83.750000
117,8043.750000117,12.500000
118,8043.750000118,-83.750000
119,8043.750000119,12.500000
120,8043.750000120,-83.750000
121,8043.750000121,12.500000
122,8043.750000122,-83.750000
123,8043.750000123,12.500000
124,8043.750000124,-83.750000
125,8043.750000125,12.500000
126,8043.750000126,-83.750000
127,8043.750000127,12.500000
128,8043.750000128,12.500000
129,7947.500000129,-83.750000
130,8043.750000130,12.500000
131,8043.750000131,12.500000
132,8043.750000132,-83.750000
133,8043.750000133,12.500000
134,8043.750000134,12.500000
135,8043.750000135,12.500000
136,8043.750000136,12.500000
137,7947.500000137,-83.750000
138,8043.750000138,-83.750000
139,8043.750000139,12.500000
140,8043.750000140,12.500000
141,8043.750000141,12.500000
142,8043.750000142,12.500000
143,8043.750000143,-83.750000
144,7947.500000144,12.500000
145,8043.750000145,12.500000
146,8043.750000146,-83.750000
147,8043.750000147,12.500000
148,8043.750000148,-83.750000
149,8043.750000149,12.500000
150,8043.750000150,12.500000
151,8043.750000151,-83.750000
152,8043.750000152,12.500000
153,8043.750000153,12.500000
154,8043.750000154,12.500000
155,8043.750000155,12.500000
156,8043.750000156,12.500000
157,8043.750000157,12.500000
158,8043.750000158,12.500000
159,8043.750000159,-83.750000
160,8043.750000160,12.500000
161,8043.750000161,12.500000
162,8043.750000162,-83.750000
163,8043.750000163,12.500000
164,8043.750000164,12.500000
165,8043.750000165,12.500000
166,8043.750000166,-83.750000
167,8043.750000167,12.500000
168,8043.750000168,12.500000
169,8043.750000169,12.500000
170,8043.750000170,-83.750000
171,8043.750000171,12.500000
172,8043.750000172,12.500000
173,8043.750000173,12.500000
174,8043.750000174,-83.750000
175,8043.750000175,12.500000
176,8043.750000176,12.500000
177,8043.750000177,12.500000
178,8043.750000178,12.500000
179,8043.750000179,12.500000
180,8043.750000180,12.500000
181,8043.750000181,-83.750000
182,8043.750000182,-83.750000
183,8043.750000183,12.500000
184,8043.750000184,12.500000
185,8043.750000185,12.500000
186,8043.750000186,-83.750000
187,8043.750000187,12.500000
188,8043.750000188,-83.750000
189,8043.750000189,12.500000
190,8043.750000190,-83.750000
191,8043.750000191,12.500000
192,8043.750000192,-83.750000
193,8043.750000193,12.500000
194,8043.750000194,12.500000
195,8043.750000195,12.500000
196,8043.750000196,12.500000
197,8043.750000197,12.500000
198,8043.750000198,12.500000
199,8043.750000199,-83.750000
200,8043.750000200,12.500000
201,8043.750000201,12.500000
202,8043.750000202,-83.750000
203,8043.750000203,12.500000
204,8043.750000204,12.500000
205,8043.750000205,-83.750000
206,8043.750000206,-83.750000
207,8043.750000207,12.500000
208,8043.750000208,-83.750000
209,8043.750000209,12.500000
210,8043.750000210,-83.750000
211,8043.750000211,12.500000
212,8043.750000212,-83.750000
213,8043.750000213,12.500000
214,8043.750000214,12.500000
215,8043.750000215,-83.750000
216,8043.750000216,12.500000
217,8043.750000217,12.500000
218,8043.750000218,12.500000
219,8043.750000219,-83.750000
220,8043.750000220,12.500000
221,8043.750000221,-83.750000
222,8043.750000222,12.500000
223,8043.750000223,12.500000
224,8043.750000224,12.500000
225,8043.750000225,12.500000
226,8043.750000226,-83.750000
227,8043.750000227,12.500000
228,8043.750000228,12.500000
229,8043.750000229,12.500000
230,8043.750000230,12.500000
231,8043.750000231,12.500000
232,8043.750000232,-83.750000
233,8043.750000233,12.500000
234,8043.750000234,12.500000
235,8043.750000235,-83.750000
236,8043.750000236,12.500000
237,8043.750000237,-83.750000
238,8043.750000238,12.500000
239,8043.750000239,12.500000
240,8043.750000240,12.500000
241,8043.750000241,12.500000
242,8043.750000242,12.500000
243,8043.750000243,12.500000
244,8043.750000244,12.500000
245,7947.500000245,12.500000
246,8043.750000246,-83.750000
247,8043.750000247,12.500000
248,8043.750000248,12.500000
249,8043.750000249,12.500000
250,8043.750000250,-83.750000
251,8043.750000251,12.500000
252,8043.750000252,12.500000
253,8043.750000253,-83.750000
254,8043.750000254,12.500000
255,8043.750000255,12.500000
256,8043.750000256,12.500000
257,8043.750000257,12.500000
258,8043.750000258,12.500000
259,8043.750000259,12.500000
260,8043.750000260,12.500000
261,8043.750000261,-83.750000
262,8043.750000262,12.500000
263,8043.750000263,12.500000
264,8043.750000264,12.500000
265,8043.750000265,12.500000
266,8043.750000266,12.500000
267,7947.500000267,12.500000
268,8043.750000268,12.500000
269,8043.750000269,12.500000
270,8043.750000270,12.500000
271,8043.750000271,-83.750000
272,8043.750000272,12.500000
273,8043.750000273,12.500000
274,8043.750000274,-83.750000
275,8043.750000275,12.500000
276,8043.750000276,12.500000
277,8043.750000277,12.500000
278,8043.750000278,-83.750000
279,8043.750000279,12.500000
280,8043.750000280,-83.750000
281,8043.750000281,12.500000
282,8043.750000282,12.500000
283,8043.750000283,12.500000
284,8043.750000284,12.500000
285,8043.750000285,12.500000
286,8043.750000286,-83.750000
287,8043.750000287,12.500000
288,8043.750000288,12.500000
289,8043.750000289,12.500000
290,8043.750000290,12.500000
291,8043.750000291,-83.750000
292,8043.750000292,12.500000
293,8043.750000293,12.500000
294,8043.750000294,12.500000
295,8043.750000295,12.500000
296,8043.750000296,12.500000
297,8043.750000297,12.500000
298,8043.750000298,12.500000
299,8043.750000299,12.500000
300,8043.750000300,12.500000
301,8043.750000301,-83.750000
302,8043.750000302,-83.750000
303,8043.750000303,12.500000
304,8043.750000304,-83.750000
305,8043.750000305,12.500000
306,8043.750000306,12.500000
307,8043.750000307,-83.750000
308,8043.750000308,-83.750000
309,8043.750000309,12.500000
310,7947.500000310,-83.750000
311,8043.750000311,12.500000
312,8043.750000312,12.500000
313,8043.750000313,12.500000
314,8043.750000314,-83.750000
315,8043.750000315,12.500000
316,8043.750000316,12.500000
317,8043.750000317,12.500000
318,8043.750000318,-83.750000
319,8043.750000319,12.500000
320,8043.750000320,12.500000
321,8043.750000321,12.500000
322,8043.750000322,-83.750000
323,8043.750000323,12.500000
324,8043.750000324,-83.750000
325,8043.750000325,12.500000
326,8043.750000326,-83.750000
327,8043.750000327,12.500000
328,8043.750000328,12.500000
329,8043.750000329,12.500000
330,8043.750000330,-83.750000
331,8043.750000331,12.500000
332,8043.750000332,12.500000
333,8043.750000333,12.500000
334,8043.750000334,-83.750000
335,8043.750000335,12.500000
336,8043.750000336,12.500000
337,8043.750000337,-83.750000
338,8043.750000338,-83.750000
339,8043.750000339,-83.750000
340,8043.750000340,12.500000
341,8043.750000341,12.500000
342,8043.750000342,12.500000
343,8043.750000343,-83.750000
344,8043.750000344,12.500000
345,8043.750000345,12.500000
346,8043.750000346,12.500000
347,8043.750000347,12.500000
348,8043.750000348,12.500000
349,8043.750000349,12.500000
350,8043.750000350,-83.750000
351,8043.750000351,12.500000
352,8043.750000352,12.500000
353,8043.750000353,12.500000
354,8043.750000354,-83.750000
355,8043.750000355,12.500000
356,8043.750000356,12.500000
357,8043.750000357,12.500000
358,8043.750000358,12.500000
359,8043.750000359,12.500000
360,8043.750000360,12.500000
361,8043.750000361,12.500000
362,8043.750000362,-83.750000
363,8043.750000363,12.500000
364,8043.750000364,-83.750000
365,8043.750000365,12.500000
366,8043.750000366,-83.750000
367,8043.750000367,12.500000
368,8043.750000368,-83.750000
369,8043.750000369,12.500000
370,8043.750000370,-83.750000
371,8043.750000371,12.500000
372,8043.750000372,-83.750000
373,8043.750000373,12.500000
374,8043.750000374,12.500000
375,8043.750000375,12.500000
376,8043.750000376,12.500000
377,8043.750000377,12.500000
378,8043.750000378,12.500000
379,8043.750000379,-83.750000
380,8043.750000380,12.500000
381,8043.750000381,12.500000
382,8043.750000382,12.500000
383,8043.750000383,12.500000
384,8043.750000384,12.500000
385,8043.750000385,12.500000
386,8043.750000386,-83.750000
387,8043.750000387,12.500000
388,8043.750000388,-83.750000
389,8043.750000389,12.500000
390,8043.750000390,12.500000
391,8043.750000391,-83.750000
392,8043.750000392,12.500000
393,8043.750000393,12.500000
394,8043.750000394,12.500000
395,8043.750000395,12.500000
396,8043.750000396,12.500000
397,8043.750000397,12.500000
398,8043.750000398,12.500000
399,8043.750000399,12.500000
400,8043.750000400,-83.750000
401,8043.750000401,12.500000
402,8043.750000402,-83.750000
403,8043.750000403,12.500000
404,8043.750000404,12.500000
405,8043.750000405,-83.750000
406,8043.750000406,-83.750000
407,8043.750000407,12.500000
408,8043.750000408,-83.750000
409,8043.750000409,12.500000
410,8043.750000410,12.500000
411,7947.500000411,-83.750000
412,8043.750000412,12.500000
413,8043.750000413,12.500000
414,8043.750000414,-83.750000
415,8043.750000415,12.500000
416,8043.750000416,-83.750000
417,8043.750000417,12.500000
418,8043.750000418,-83.750000
419,7947.500000419,12.500000
420,8043.750000420,12.500000
421,8043.750000421,12.500000
422,8043.750000422,12.500000
423,8043.750000423,12.500000
424,8043.750000424,12.500000
425,8043.750000425,12.500000
426,8043.750000426,12.500000
427,8043.750000427,12.500000
428,8043.750000428,12.500000
429,8043.750000429,12.500000
430,8043.750000430,-83.750000
431,8043.750000431,12.500000
432,8043.750000432,-83.750000
433,7947.500000433,12.500000
434,8043.750000434,-83.750000
435,8043.750000435,12.500000
436,8043.750000436,12.500000
437,8043.750000437,12.500000
438,8043.750000438,-83.750000
439,7947.500000439,12.500000
440,8043.750000440,12.500000
441,8043.750000441,12.500000
442,8043.750000442,12.500000
443,8043.750000443,-83.750000
444,8043.750000444,12.500000
445,8043.750000445,12.500000
446,8043.750000446,12.500000
447,8043.750000447,-83.750000
448,8043.750000448,12.500000
449,8043.750000449,-83.750000
450,8043.750000450,12.500000
451,8043.750000451,-83.750000
452,8043.750000452,12.500000
453,8043.750000453,12.500000
454,8043.750000454,-83.750000
455,8043.750000455,12.500000
456,8043.750000456,12.500000
457,8043.750000457,12.500000
458,8043.750000458,12.500000
459,8043.750000459,12.500000
460,8043.750000460,12.500000
461,8043.750000461,12.500000
462,8043.750000462,12.500000
463,8043.750000463,12.500000
464,8043.750000464,12.500000
465,8043.750000465,12.500000
466,8043.750000466,12.500000
467,8043.750000467,12.500000
468,8043.750000468,12.500000
469,8043.750000469,12.500000
470,8043.750000470,12.500000
471,8043.750000471,12.500000
472,8043.750000472,12.500000
473,8043.750000473,12.500000
474,8043.750000474,12.500000
475,8043.750000475,-83.750000
476,8043.750000476,12.500000
477,8043.750000477,12.500000
478,8043.750000478,-83.750000
479,8043.750000479,12.500000
480,8043.750000480,12.500000
481,8043.750000481,12.500000
482,8043.750000482,12.500000
483,8043.750000483,12.500000
484,8043.750000484,12.500000
485,8043.750000485,12.500000
486,8043.750000486,12.500000
487,8043.750000487,-83.750000
488,8043.750000488,12.500000
489,8043.750000489,12.500000
490,8043.750000490,-83.750000
491,8043.750000491,12.500000
492,8043.750000492,-83.750000
493,8043.750000493,12.500000
494,8043.750000494,12.500000
495,8043.750000495,12.500000
496,8043.750000496,12.500000
497,8043.750000497,12.500000
498,8043.750000498,12.500000
499,8043.750000499,-83.750000
500,8043.750000500,12.500000
501,8043.750000501,12.500000
502,8043.750000502,-83.750000
503,8043.750000503,12.500000
504,8043.750000504,12.500000
505,8043.750000505,12.500000
506,8043.750000506,-83.750000
507,8043.750000507,12.500000
508,8043.750000508,12.500000
509,8043.750000509,12.500000
510,8043.750000510,12.500000
511,8043.750000511,12.500000
512,8043.750000512,12.500000
513,8043.750000513,12.500000
514,8043.750000514,-83.750000
515,8043.750000515,12.500000
516,8043.750000516,12.500000
517,8043.750000517,12.500000
518,8043.750000518,12.500000
519,8043.750000519,12.500000
520,8043.750000520,-83.750000
521,8043.750000521,12.500000
522,8043.750000522,-83.750000
523,8043.750000523,12.500000
524,8043.750000524,12.500000
525,8043.750000525,12.500000
526,8043.750000526,-83.750000
527,8043.750000527,12.500000
528,8043.750000528,-83.750000
529,8043.750000529,12.500000
530,8043.750000530,12.500000
531,8043.750000531,-83.750000
532,8043.750000532,12.500000
533,8043.750000533,12.500000
534,8043.750000534,12.500000
535,8043.750000535,12.500000
536,8043.750000536,12.500000
537,8043.750000537,12.500000
538,8043.750000538,-83.750000
539,8043.750000539,12.500000
540,8043.750000540,12.500000
541,8043.750000541,12.500000
542,8043.750000542,-83.750000
543,8043.750000543,12.500000
544,8043.750000544,12.500000
545,8043.750000545,-83.750000
546,8043.750000546,-83.750000
547,8043.750000547,12.500000
548,8043.750000548,12.500000
549,8043.750000549,12.500000
550,8043.750000550,12.500000
551,8043.750000551,12.500000
552,8043.750000552,-83.750000
553,8043.750000553,12.500000
554,8043.750000554,-83.750000
555,8043.750000555,12.500000
556,8043.750000556,12.500000
557,8043.750000557,-83.750000
558,8043.750000558,12.500000
559,8043.750000559,-83.750000
560,8043.750000560,12.500000
561,8043.750000561,12.500000
562,8043.750000562,-83.750000
563,8043.750000563,12.500000
564,8043.750000564,12.500000
565,8043.750000565,12.500000
566,8043.750000566,12.500000
567,8043.750000567,-83.750000
568,8043.750000568,12.500000
569,8043.750000569,-83.750000
570,8043.750000570,12.500000
571,8043.750000571,12.500000
572,8043.750000572,12.500000
573,8043.750000573,12.500000
574,8043.750000574,12.500000
575,8043.750000575,12.500000
576,8043.750000576,12.500000
577,8043.750000577,12.500000
578,8043.750000578,12.500000
579,8043.750000579,12.500000
580,8043.750000580,12.500000
581,8043.750000581,12.500000
582,8043.750000582,-83.750000
583,8043.750000583,12.500000
584,8043.750000584,-83.750000
585,8043.750000585,12.500000
586,8043.750000586,12.500000
587,8043.750000587,-83.750000
588,8043.750000588,12.500000
589,8043.750000589,12.500000
590,8043.750000590,12.500000
591,8043.750000591,12.500000
592,8043.750000592,12.500000
593,8043.750000593,12.500000
594,8043.750000594,-83.750000
595,8043.750000595,12.500000
596,8043.750000596,-83.750000
597,8043.750000597,12.500000
598,8043.750000598,12.500000
599,8043.750000599,12.500000
600,8043.750000600,12.500000
601,8043.750000601,12.500000
602,8043.750000602,12.500000
603,8043.750000603,12.500000
604,8043.750000604,12.500000
605,8043.750000605,12.500000
606,8043.750000606,12.500000
607,8043.750000607,12.500000
608,8043.750000608,-83.750000
609,8043.750000609,12.500000
610,8043.750000610,12.500000
611,8043.750000611,12.500000
612,8043.750000612,12.500000
613,8043.750000613,12.500000
614,8043.750000614,-83.750000
615,8043.750000615,12.500000
616,8043.750000616,12.500000
617,8043.750000617,12.500000
618,8043.750000618,12.500000
619,8043.750000619,12.500000
620,8043.750000620,-83.750000
621,8043.750000621,12.500000
622,8043.750000622,12.500000
623,8043.750000623,12.500000
624,8043.750000624,12.500000
625,8043.750000625,12.500000
626,8043.750000626,-83.750000
627,7947.500000627,12.500000
628,8043.750000628,12.500000
629,8043.750000629,12.500000
630,8043.750000630,-83.750000
631,8043.750000631,12.500000
632,8043.750000632,12.500000
633,8043.750000633,12.500000
634,8043.750000634,-83.750000
635,8043.750000635,12.500000
636,8043.750000636,12.500000
637,8043.750000637,12.500000
638,8043.750000638,-83.750000
639,8043.750000639,12.500000
640,8043.750000640,12.500000
641,8043.750000641,12.500000
642,8043.750000642,12.500000
643,8043.750000643,12.500000
644,8043.750000644,12.500000
645,8043.750000645,-83.750000
646,8043.750000646,12.500000
647,8043.750000647,12.500000
648,8043.750000648,12.500000
649,8043.750000649,12.500000
650,8043.750000650,12.500000
651,8043.750000651,12.500000
652,8043.750000652,12.500000
653,8043.750000653,12.500000
654,8043.750000654,-83.750000
655,8043.750000655,12.500000
656,8043.750000656,12.500000
657,8043.750000657,-83.750000
658,8043.750000658,12.500000
659,8043.750000659,12.500000
660,8043.750000660,12.500000
661,8043.750000661,-83.750000
662,8043.750000662,12.500000
663,8043.750000663,12.500000
664,8043.750000664,12.500000
665,8043.750000665,12.500000
666,8043.750000666,-83.750000
667,8043.750000667,12.500000
668,8043.750000668,12.500000
669,8043.750000669,12.500000
670,8043.750000670,-83.750000
671,8043.750000671,-83.750000
672,8043.750000672,12.500000
673,8043.750000673,12.500000
674,8043.750000674,-83.750000
675,8043.750000675,12.500000
676,8043.750000676,12.500000
677,8043.750000677,12.500000
678,8043.750000678,12.500000
