experimentaldata/prb.csv

Channel              :,CH1,CH2,CH3
Frequency            :,  ?,1.250MHz,  ?
Period               :,  ?,800.0ns,  ?
PK-PK                :,6.102V,1.727V,317.6mV
Average              :,4.610V,-25.02mV,1.210V
Vertical pos         :,1.000000mV,1.000000mV,1.000000mV
Probe attenuation    :,1X,1X,1X
Voltage per ADC value:,0.312500mV,0.156250mV,0.031250mV
Time interval        :,0.10000uS,0.10000uS,0.10000uS

index,CH1_Voltage(mV),CH2_Voltage(mV),CH3_Voltage(mV)
1,4943.7500001,-38.1250001,1310.000000
2,4943.7500002,10.0000002,1310.000000
3,4943.7500003,-38.1250003,1310.000000
4,4943.7500004,-38.1250004,1310.000000
5,5041.2500005,10.0000005,1310.000000
6,4943.7500006,10.0000006,1310.000000
7,4943.7500007,-38.1250007,1310.000000
8,4943.7500008,-38.1250008,1310.000000
9,4943.7500009,10.0000009,1310.000000
10,4943.75000010,-38.12500010,1310.000000
11,4943.75000011,-38.12500011,1310.000000
12,4943.75000012,-38.12500012,1310.000000
13,4943.75000013,10.00000013,1310.000000
14,4943.75000014,-38.12500014,1310.000000
15,4943.75000015,-38.12500015,1310.000000
16,4943.75000016,-38.12500016,1310.000000
17,4943.75000017,-38.12500017,1310.000000
18,4943.75000018,-38.12500018,1310.000000
19,4943.75000019,-38.12500019,1310.000000
20,4943.75000020,-38.12500020,1310.000000
21,4943.75000021,10.00000021,1310.000000
22,4943.75000022,10.00000022,1310.000000
23,4943.75000023,10.00000023,1310.000000
24,4943.75000024,-38.12500024,1310.000000
25,4943.75000025,-38.12500025,1310.000000
26,4943.75000026,-38.12500026,1310.000000
27,4943.75000027,-38.12500027,1310.000000
28,4943.75000028,10.00000028,1310.000000
29,4943.75000029,10.00000029,1310.000000
30,4943.75000030,-38.12500030,1310.000000
31,4943.75000031,-38.12500031,1310.000000
32,4943.75000032,-38.12500032,1310.000000
33,4943.75000033,10.00000033,1310.000000
34,4943.75000034,-38.12500034,1310.000000
35,4943.75000035,-38.12500035,1310.000000
36,4943.75000036,-38.12500036,1310.000000
37,4943.75000037,10.00000037,1310.000000
38,4943.75000038,-38.12500038,1310.000000
39,4943.75000039,-38.12500039,1310.000000
40,5041.25000040,10.00000040,1310.000000
41,4943.75000041,-38.12500041,1310.000000
42,4943.75000042,10.00000042,1310.000000
43,4943.75000043,-38.12500043,1310.000000
44,5041.25000044,-38.12500044,1310.000000
45,4943.75000045,10.00000045,1310.000000
46,4943.75000046,-38.12500046,1310.000000
47,4943.75000047,-38.12500047,1310.000000
48,4943.75000048,-38.12500048,1310.000000
49,4943.75000049,-38.12500049,1310.000000
50,5041.25000050,-38.12500050,1310.000000
51,4943.75000051,-38.12500051,1310.000000
52,4943.75000052,10.00000052,1310.000000
53,4943.75000053,-38.12500053,1310.000000
54,5041.25000054,-38.12500054,1310.000000
55,4943.75000055,-38.12500055,1310.000000
56,4943.75000056,-38.12500056,1310.000000
57,4943.75000057,10.00000057,1310.000000
58,4943.75000058,-38.12500058,1310.000000
59,4943.75000059,-38.12500059,1310.000000
60,5041.25000060,10.00000060,1310.000000
61,4943.75000061,-38.12500061,1310.000000
62,4943.75000062,-38.12500062,1310.000000
63,4943.75000063,-38.12500063,1310.000000
64,4943.75000064,-38.12500064,1310.000000
65,4943.75000065,-38.12500065,1310.000000
66,4943.75000066,10.00000066,1310.000000
67,4943.75000067,-38.12500067,1310.000000
68,4943.75000068,-38.12500068,1310.000000
69,4943.75000069,-38.12500069,1310.000000
70,4943.75000070,-38.12500070,1310.000000
71,4943.75000071,-38.12500071,1310.000000
72,4943.75000072,-38.12500072,1310.000000
73,4943.75000073,-38.12500073,1310.000000
74,4943.75000074,10.00000074,1310.000000
75,4943.75000075,10.00000075,1310.000000
76,4943.75000076,-38.12500076,1310.000000
77,4943.75000077,-38.12500077,1310.000000
78,4943.75000078,-38.12500078,1310.000000
79,4943.75000079,-38.12500079,1310.000000
80,4943.75000080,-38.12500080,1310.000000
81,4943.75000081,-38.12500081,1310.000000
82,4943.75000082,-38.12500082,1310.000000
83,4943.75000083,-38.12500083,1310.000000
84,4943.75000084,10.00000084,1310.000000
85,4943.75000085,10.00000085,1310.000000
86,4943.75000086,10.00000086,1310.000000
87,4943.75000087,-38.12500087,1310.000000
88,4943.75000088,-38.12500088,1310.000000
89,5041.25000089,10.00000089,1310.000000
90,4943.75000090,-38.12500090,1310.000000
91,4943.75000091,-38.12500091,1310.000000
92,4943.75000092,-38.12500092,1310.000000
93,4943.75000093,10.00000093,1310.000000
94,4943.75000094,-38.12500094,1310.000000
95,4943.75000095,-38.12500095,1300.375000
96,4943.75000096,10.00000096,1310.000000
97,4943.75000097,10.00000097,1300.375000
98,4943.75000098,-38.12500098,1310.000000
99,4943.75000099,-38.12500099,1310.000000
100,4943.750000100,10.000000100,1310.000000
101,4943.750000101,-38.125000101,1310.000000
102,4943.750000102,-38.125000102,1310.000000
103,4943.750000103,-38.125000103,1310.000000
104,4943.750000104,-38.125000104,1310.000000
105,4943.750000105,-38.125000105,1310.000000
106,4943.750000106,-38.125000106,1310.000000
107,5041.250000107,-38.125000107,1310.000000
108,4943.750000108,-38.125000108,1310.000000
109,4943.750000109,10.000000109,1310.000000
110,4943.750000110,-38.125000110,1310.000000
111,4943.750000111,-38.125000111,1310.000000
112,4943.750000112,-38.125000112,1310.000000
113,4943.750000113,10.000000113,1310.000000
114,4943.750000114,-38.125000114,1300.375000
115,4943.750000115,-38.125000115,1310.000000
116,4943.750000116,10.000000116,1310.000000
117,4943.750000117,10.000000117,1310.000000
118,4943.750000118,10.000000118,1310.000000
119,4943.750000119,-38.125000119,1310.000000
120,4943.750000120,10.000000120,1310.000000
121,4943.750000121,-38.125000121,1310.000000
122,4943.750000122,-38.125000122,1310.000000
123,4943.750000123,-38.125000123,1310.000000
124,4943.750000124,-38.125000124,1310.000000
125,4943.750000125,-38.125000125,1310.000000
126,4943.750000126,-38.125000126,1310.000000
127,4943.750000127,-38.125000127,1310.000000
128,4943.750000128,-38.125000128,1310.000000
129,4943.750000129,10.000000129,1310.000000
130,4943.750000130,10.000000130,1310.000000
131,4943.750000131,-38.125000131,1310.000000
132,4943.750000132,10.000000132,1310.000000
133,4943.750000133,-38.125000133,1310.000000
134,5041.250000134,10.000000134,1300.375000
135,4943.750000135,-38.125000135,1300.375000
136,4943.750000136,-38.125000136,1310.000000
137,4943.750000137,-38.125000137,1300.375000
138,5041.250000138,10.000000138,1310.000000
139,4943.750000139,-38.125000139,1310.000000
140,4943.750000140,-38.125000140,1310.000000
141,4943.750000141,-38.125000141,1300.375000
142,4943.750000142,-38.125000142,1310.000000
143,4943.750000143,-38.125000143,1310.000000
144,4943.750000144,-38.125000144,1310.000000
145,4943.750000145,-38.125000145,1310.000000
146,4943.750000146,10.000000146,1300.375000
147,4943.750000147,-38.125000147,1300.375000
148,4943.750000148,-38.125000148,1310.000000
149,4943.750000149,-38.125000149,1310.000000
150,4943.750000150,10.000000150,1310.000000
151,4943.750000151,-38.125000151,1310.000000
152,4943.750000152,10.000000152,1300.375000
153,5041.250000153,-38.125000153,1300.375000
154,4943.750000154,10.000000154,1310.000000
155,4943.750000155,10.000000155,1310.000000
156,4943.750000156,-38.125000156,1310.000000
157,4943.750000157,10.000000157,1300.375000
158,4943.750000158,10.000000158,1300.375000
159,4943.750000159,-38.125000159,1310.000000
160,4943.750000160,-38.125000160,1300.375000
161,4943.750000161,-38.125000161,1310.000000
162,4943.750000162,-38.125000162,1310.000000
163,4943.750000163,-38.125000163,1310.000000
164,4943.750000164,10.000000164,1300.375000
165,4943.750000165,-38.125000165,1310.000000
166,4943.750000166,-38.125000166,1310.000000
167,4943.750000167,-38.125000167,1310.000000
168,4943.750000168,-38.125000168,1310.000000
169,4943.750000169,10.000000169,1310.000000
170,5041.250000170,-38.125000170,1310.000000
171,4943.750000171,-38.125000171,1310.000000
172,4943.750000172,-38.125000172,1300.375000
173,4943.750000173,10.000000173,1300.375000
174,4943.750000174,-38.125000174,1300.375000
175,4943.750000175,-38.125000175,1300.375000
176,4943.750000176,-38.125000176,1310.000000
177,4943.750000177,-38.125000177,1310.000000
178,4943.750000178,10.000000178,1310.000000
179,4943.750000179,-38.125000179,1300.375000
180,4943.750000180,-38.125000180,1300.375000
181,4943.750000181,-38.125000181,1310.000000
182,4943.750000182,-38.125000182,1300.375000
183,4943.750000183,-38.125000183,1300.375000
184,4943.750000184,-38.125000184,1300.375000
185,4943.750000185,10.000000185,1310.000000
186,4943.750000186,-38.125000186,1300.375000
187,4943.750000187,-38.125000187,1310.000000
188,4943.750000188,-38.125000188,1300.375000
189,4943.750000189,-38.125000189,1310.000000
190,4943.750000190,10.000000190,1300.375000
191,4943.750000191,-38.125000191,1300.375000
192,4943.750000192,-38.125000192,1300.375000
193,4943.750000193,-38.125000193,1300.375000
194,4943.750000194,-38.125000194,1300.375000
195,4943.750000195,-38.125000195,1300.375000
196,4943.750000196,-38.125000196,1300.375000
197,4943.750000197,10.000000197,1310.000000
198,4943.750000198,-38.125000198,1310.000000
199,4943.750000199,-38.125000199,1300.375000
200,4943.750000200,-38.125000200,1300.375000
201,4943.750000201,-38.125000201,1300.375000
202,4943.750000202,-38.125000202,1300.375000
203,4943.750000203,-38.125000203,1310.000000
204,4943.750000204,-38.125000204,1300.375000
205,4943.750000205,10.000000205,1300.375000
206,4943.750000206,-38.125000206,1310.000000
207,4943.750000207,-38.125000207,1310.000000
208,4943.750000208,-38.125000208,1310.000000
209,4943.750000209,-38.125000209,1300.375000
210,4943.750000210,10.000000210,1310.000000
211,4943.750000211,-38.125000211,1310.000000
212,4943.750000212,10.000000212,1310.000000
213,4943.750000213,10.000000213,1300.375000
214,4943.750000214,10.000000214,1310.000000
215,4943.750000215,-38.125000215,1310.000000
216,4943.750000216,-38.125000216,1300.375000
217,4943.750000217,10.000000217,1300.375000
218,4943.750000218,-38.125000218,1300.375000
219,4943.750000219,-38.125000219,1310.000000
220,4943.750000220,10.000000220,1310.000000
221,4943.750000221,10.000000221,1300.375000
222,4943.750000222,10.000000222,1300.375000
223,4943.750000223,-38.125000223,1300.375000
224,4943.750000224,10.000000224,1300.375000
225,4943.750000225,10.000000225,1300.375000
226,5041.250000226,10.000000226,1300.375000
227,4943.750000227,-38.125000227,1300.375000
228,4943.750000228,-38.125000228,1300.375000
229,4943.750000229,10.000000229,1300.375000
230,4943.750000230,-38.125000230,1300.375000
231,4943.750000231,-38.125000231,1300.375000
232,4943.750000232,-38.125000232,1300.375000
233,4943.750000233,10.000000233,1300.375000
234,4943.750000234,-38.125000234,1300.375000
235,4943.750000235,-38.125000235,1310.000000
236,4943.750000236,-38.125000236,1300.375000
237,4943.750000237,-38.125000237,1300.375000
238,4943.750000238,-38.125000238,1300.375000
239,4943.750000239,-38.125000239,1310.000000
240,4943.750000240,-38.125000240,1300.375000
241,4943.750000241,-38.125000241,1300.375000
242,4943.750000242,10.000000242,1300.375000
243,4943.750000243,-38.125000243,1300.375000
244,4943.750000244,-38.125000244,1300.375000
245,4943.750000245,10.000000245,1300.375000
246,4943.750000246,-38.125000246,1300.375000
247,4943.750000247,-38.125000247,1310.000000
248,4943.750000248,-38.125000248,1300.375000
249,4943.750000249,-38.125000249,1300.375000
250,4943.750000250,-38.125000250,1300.375000
251,4943.750000251,-38.125000251,1310.000000
252,4943.750000252,10.000000252,1300.375000
253,4943.750000253,10.000000253,1300.375000
254,4943.750000254,-38.125000254,1310.000000
255,4943.750000255,10.000000255,1310.000000
256,4943.750000256,-38.125000256,1300.375000
257,4943.750000257,10.000000257,1300.375000
258,4943.750000258,10.000000258,1310.000000
259,4943.750000259,-38.125000259,1310.000000
260,4943.750000260,10.000000260,1300.375000
261,4943.750000261,10.000000261,1300.375000
262,4943.750000262,10.000000262,1300.375000
263,4943.750000263,-38.125000263,1300.375000
264,4943.750000264,-38.125000264,1300.375000
265,5041.250000265,10.000000265,1300.375000
266,4943.750000266,10.000000266,1300.375000
267,4943.750000267,-38.125000267,1300.375000
268,4943.750000268,10.000000268,1300.375000
269,4943.750000269,10.000000269,1300.375000
270,4943.750000270,10.000000270,1300.375000
271,4943.750000271,10.000000271,1300.375000
272,4943.750000272,-38.125000272,1300.375000
273,4943.750000273,-38.125000273,1300.375000
274,5041.250000274,-38.125000274,1310.000000
275,4943.750000275,-38.125000275,1310.000000
276,4943.750000276,10.000000276,1300.375000
277,4943.750000277,10.000000277,1300.375000
278,4943.750000278,10.000000278,1300.375000
279,4943.750000279,-38.125000279,1300.375000
280,4943.750000280,-38.125000280,1300.375000
281,4943.750000281,10.000000281,1300.375000
282,4943.750000282,-38.125000282,1300.375000
283,4943.750000283,10.000000283,1310.000000
284,4943.750000284,-38.125000284,1300.375000
285,4943.750000285,-38.125000285,1300.375000
286,4943.750000286,-38.125000286,1300.375000
287,4943.750000287,10.000000287,1300.375000
288,4943.750000288,10.000000288,1300.375000
289,4943.750000289,-38.125000289,1300.375000
290,4943.750000290,-38.125000290,1300.375000
291,4943.750000291,-38.125000291,1300.375000
292,4943.750000292,-38.125000292,1300.375000
293,4943.750000293,-38.125000293,1300.375000
294,5041.250000294,-38.125000294,1300.375000
295,4943.750000295,10.000000295,1300.375000
296,4943.750000296,-38.125000296,1300.375000
297,4943.750000297,10.000000297,1300.375000
298,4943.750000298,-38.125000298,1300.375000
299,4943.750000299,-38.125000299,1300.375000
300,4943.750000300,-38.125000300,1300.375000
301,4943.750000301,10.000000301,1300.375000
302,5041.250000302,10.000000302,1300.375000
303,4943.750000303,-38.125000303,1300.375000
304,4943.750000304,-38.125000304,1300.375000
305,5041.250000305,-38.125000305,1300.375000
306,4943.750000306,-38.125000306,1300.375000
307,4943.750000307,-38.125000307,1300.375000
308,4943.750000308,10.000000308,1300.375000
309,5041.250000309,10.000000309,1300.375000
310,4943.750000310,10.000000310,1300.375000
311,4943.750000311,-38.125000311,1300.375000
312,4943.750000312,-38.125000312,1300.375000
313,4943.750000313,10.000000313,1300.375000
314,4943.750000314,10.000000314,1310.000000
315,4943.750000315,-38.125000315,1300.375000
316,4943.750000316,-38.125000316,1300.375000
317,4943.750000317,10.000000317,1300.375000
318,4943.750000318,-38.125000318,1300.375000
319,4943.750000319,-38.125000319,1300.375000
320,4943.750000320,-38.125000320,1300.375000
321,4943.750000321,10.000000321,1300.375000
322,4943.750000322,-38.125000322,1300.375000
323,4943.750000323,-38.125000323,1300.375000
324,4943.750000324,10.000000324,1300.375000
325,4943.750000325,10.000000325,1300.375000
326,4943.750000326,10.000000326,1300.375000
327,4943.750000327,-38.125000327,1300.375000
328,4943.750000328,-38.125000328,1300.375000
329,4943.750000329,-38.125000329,1300.375000
330,4943.750000330,10.000000330,1300.375000
331,4943.750000331,-38.125000331,1300.375000
332,4943.750000332,-38.125000332,1300.375000
333,4943.750000333,-38.125000333,1300.375000
334,4943.750000334,-38.125000334,1300.375000
335,4943.750000335,-38.125000335,1300.375000
336,4943.750000336,-38.125000336,1300.375000
337,4943.750000337,10.000000337,1300.375000
338,4943.750000338,-38.125000338,1300.375000
339,4943.750000339,-38.125000339,1300.375000
340,4943.750000340,-38.125000340,1300.375000
341,4943.750000341,-38.125000341,1300.375000
342,4943.750000342,10.000000342,1300.375000
343,4943.750000343,10.000000343,1300.375000
344,4943.750000344,-38.125000344,1300.375000
345,4943.750000345,10.000000345,1300.375000
346,4943.750000346,10.000000346,1300.375000
347,4943.750000347,10.000000347,1300.375000
348,4943.750000348,10.000000348,1300.375000
349,5041.250000349,10.000000349,1300.375000
350,5041.250000350,-38.125000350,1300.375000
351,4943.750000351,-38.125000351,1300.375000
352,4943.750000352,-38.125000352,1300.375000
353,5041.250000353,-38.125000353,1300.375000
354,4943.750000354,10.000000354,1300.375000
355,4943.750000355,-38.125000355,1300.375000
356,4943.750000356,-38.125000356,1300.375000
357,4943.750000357,-38.125000357,1300.375000
358,5041.250000358,10.000000358,1300.375000
359,4943.750000359,-38.125000359,1300.375000
360,4943.750000360,-38.125000360,1300.375000
361,4943.750000361,10.000000361,1300.375000
362,5041.250000362,10.000000362,1300.375000
363,4943.750000363,-38.125000363,1300.375000
364,4943.750000364,-38.125000364,1300.375000
365,4943.750000365,10.000000365,1300.375000
366,4943.750000366,10.000000366,1300.375000
367,4943.750000367,-38.125000367,1300.375000
368,4943.750000368,-38.125000368,1300.375000
369,4943.750000369,10.000000369,1300.375000
370,4943.750000370,-38.125000370,1300.375000
371,4943.750000371,-38.125000371,1300.375000
372,5041.250000372,10.000000372,1300.375000
373,4943.750000373,-38.125000373,1300.375000
374,4943.750000374,-38.125000374,1300.375000
375,4943.750000375,10.000000375,1300.375000
376,4943.750000376,-38.125000376,1300.375000
377,4943.750000377,10.000000377,1300.375000
378,4943.750000378,10.000000378,1300.375000
379,4943.750000379,-38.125000379,1300.375000
380,4943.750000380,-38.125000380,1300.375000
381,4943.750000381,10.000000381,1300.375000
382,4943.750000382,-38.125000382,1300.375000
383,4943.750000383,-38.125000383,1300.375000
384,4943.750000384,-38.125000384,1300.375000
385,4943.750000385,-38.125000385,1300.375000
386,4943.750000386,-38.125000386,1300.375000
387,4943.750000387,-38.125000387,1300.375000
388,4943.750000388,10.000000388,1300.375000
389,4943.750000389,10.000000389,1300.375000
390,4943.750000390,10.000000390,1300.375000
391,4943.750000391,-38.125000391,1300.375000
392,4943.750000392,-38.125000392,1300.375000
393,4943.750000393,-38.125000393,1300.375000
394,4943.750000394,-38.125000394,1300.375000
395,4943.750000395,-38.125000395,1300.375000
396,4943.750000396,-38.125000396,1300.375000
397,4943.750000397,10.000000397,1300.375000
398,4943.750000398,10.000000398,1300.375000
399,4943.750000399,-38.125000399,1300.375000
400,4943.750000400,-38.125000400,1300.375000
401,4943.750000401,-38.125000401,1300.375000
402,4943.750000402,-38.125000402,1300.375000
403,4943.750000403,-38.125000403,1300.375000
404,4943.750000404,-38.125000404,1300.375000
405,4943.750000405,-38.125000405,1300.375000
406,4943.750000406,-38.125000406,1300.375000
407,4943.750000407,10.000000407,1300.375000
408,4943.750000408,-38.125000408,1300.375000
409,4943.750000409,10.000000409,1300.375000
410,4943.750000410,-38.125000410,1300.375000
411,4943.750000411,-38.125000411,1300.375000
412,4943.750000412,-38.125000412,1300.375000
413,4943.750000413,10.000000413,1300.375000
414,4943.750000414,10.000000414,1300.375000
415,4943.750000415,-38.125000415,1300.375000
416,4943.750000416,-38.125000416,1300.375000
417,4943.750000417,-38.125000417,1300.375000
418,4943.750000418,10.000000418,1300.375000
419,4943.750000419,-38.125000419,1300.375000
420,4943.750000420,-38.125000420,1300.375000
421,4943.750000421,-38.125000421,1300.375000
422,4943.750000422,-38.125000422,1300.375000
423,4943.750000423,-38.125000423,1300.375000
424,4943.750000424,-38.125000424,1300.375000
425,4943.750000425,10.000000425,1300.375000
426,4943.750000426,-38.125000426,1300.375000
427,4943.750000427,-38.125000427,1300.375000
428,4943.750000428,-38.125000428,1300.375000
429,5041.250000429,10.000000429,1300.375000
430,4943.750000430,10.000000430,1300.375000
431,4943.750000431,-38.125000431,1300.375000
432,4943.750000432,-38.125000432,1300.375000
433,5041.250000433,-38.125000433,1300.375000
434,4943.750000434,10.000000434,1300.375000
435,4943.750000435,-38.125000435,1300.375000
436,4943.750000436,-38.125000436,1300.375000
437,4943.750000437,10.000000437,1300.375000
438,4943.750000438,10.000000438,1300.375000
439,4943.750000439,-38.125000439,1300.375000
440,4943.750000440,-38.125000440,1300.375000
441,4943.750000441,-38.125000441,1300.375000
442,4943.750000442,10.000000442,1300.375000
443,4943.750000443,-38.125000443,1300.375000
444,4943.750000444,-38.125000444,1300.375000
