experimentaldata/prob2.csv

Channel              :,CH1,CH2,CH3
Frequency            :,  ?,  ?,  ?
Period               :,  ?,  ?,  ?
PK-PK                :,6.781V,4.016V?,695.3mV
Average              :,2.685V,-50.10mV?,702.7mV
Vertical pos         :,1.000000mV,1.000000mV,1.000000mV
Probe attenuation    :,1X,1X,1X
Voltage per ADC value:,0.312500mV,0.156250mV,0.031250mV
Time interval        :,0.00200uS,0.00200uS,0.00200uS

index,CH1_Voltage(mV),CH2_Voltage(mV),CH3_Voltage(mV)
1,5137.5000001,-38.1250001,283.500000
2,5041.2500002,-38.1250002,293.125000
3,5041.2500003,-38.1250003,293.125000
4,5041.2500004,-38.1250004,283.500000
5,5041.2500005,-38.1250005,293.125000
6,5041.2500006,10.0000006,293.125000
7,5041.2500007,-38.1250007,293.125000
8,5041.2500008,10.0000008,293.125000
9,5041.2500009,-38.1250009,293.125000
10,5041.25000010,10.00000010,293.125000
11,5041.25000011,-38.12500011,293.125000
12,5041.25000012,-38.12500012,293.125000
13,5041.25000013,-38.12500013,293.125000
14,5041.25000014,10.00000014,293.125000
15,5041.25000015,-38.12500015,293.125000
16,5041.25000016,-38.12500016,283.500000
17,5041.25000017,-38.12500017,293.125000
18,5041.25000018,10.00000018,293.125000
19,5041.25000019,-38.12500019,293.125000
20,5041.25000020,-38.12500020,293.125000
21,5041.25000021,10.00000021,293.125000
22,5041.25000022,-38.12500022,293.125000
23,5041.25000023,-38.12500023,293.125000
24,5041.25000024,-38.12500024,293.125000
25,5041.25000025,-38.12500025,293.125000
26,5041.25000026,-38.12500026,293.125000
27,5041.25000027,-38.12500027,293.125000
28,5041.25000028,-38.12500028,293.125000
29,5041.25000029,-38.12500029,293.125000
30,5041.25000030,-38.12500030,293.125000
31,5041.25000031,-38.12500031,293.125000
32,5041.25000032,-38.12500032,293.125000
33,5041.25000033,-38.12500033,293.125000
34,5041.25000034,-38.12500034,293.125000
35,5041.25000035,-38.12500035,293.125000
36,5041.25000036,-38.12500036,293.125000
37,5041.25000037,-38.12500037,293.125000
38,5041.25000038,-38.12500038,293.125000
39,5041.25000039,-38.12500039,293.125000
40,5041.25000040,-38.12500040,293.125000
41,5041.25000041,-38.12500041,283.500000
42,5137.50000042,10.00000042,293.125000
43,5041.25000043,-38.12500043,293.125000
44,5041.25000044,-38.12500044,293.125000
45,5041.25000045,-38.12500045,293.125000
46,5041.25000046,10.00000046,293.125000
47,5041.25000047,-38.12500047,293.125000
48,5041.25000048,-38.12500048,293.125000
49,5041.25000049,-38.12500049,293.125000
50,5041.25000050,10.00000050,293.125000
51,5041.25000051,-38.12500051,293.125000
52,5041.25000052,-38.12500052,293.125000
53,5041.25000053,-38.12500053,293.125000
54,5041.25000054,-38.12500054,293.125000
55,5041.25000055,-38.12500055,293.125000
56,5041.25000056,10.00000056,293.125000
57,5137.50000057,-38.12500057,293.125000
58,5041.25000058,10.00000058,293.125000
59,5041.25000059,-38.12500059,293.125000
60,5041.25000060,10.00000060,293.125000
61,5041.25000061,-38.12500061,293.125000
62,5041.25000062,-38.12500062,293.125000
63,5041.25000063,-38.12500063,283.500000
64,5041.25000064,-38.12500064,293.125000
65,5041.25000065,-38.12500065,293.125000
66,5041.25000066,-38.12500066,293.125000
67,5041.25000067,-38.12500067,293.125000
68,5041.25000068,-38.12500068,293.125000
69,5041.25000069,-38.12500069,293.125000
70,5041.25000070,-38.12500070,293.125000
71,5041.25000071,-38.12500071,293.125000
72,5041.25000072,-38.12500072,293.125000
73,5041.25000073,-38.12500073,283.500000
74,5041.25000074,-38.12500074,293.125000
75,5137.50000075,-38.12500075,293.125000
76,5041.25000076,-38.12500076,293.125000
77,5041.25000077,-38.12500077,293.125000
78,5041.25000078,-38.12500078,293.125000
79,5041.25000079,-38.12500079,283.500000
80,5041.25000080,-38.12500080,293.125000
81,5137.50000081,-38.12500081,293.125000
82,5041.25000082,-38.12500082,293.125000
83,5041.25000083,-38.12500083,293.125000
84,5041.25000084,10.00000084,293.125000
85,5041.25000085,-38.12500085,293.125000
86,5041.25000086,-38.12500086,293.125000
87,5041.25000087,-38.12500087,283.500000
88,5041.25000088,-38.12500088,293.125000
89,5041.25000089,-38.12500089,293.125000
90,5041.25000090,10.00000090,293.125000
91,5137.50000091,-38.12500091,293.125000
92,5041.25000092,-38.12500092,293.125000
93,5041.25000093,-38.12500093,293.125000
94,5041.25000094,10.00000094,293.125000
95,5041.25000095,-38.12500095,293.125000
96,5041.25000096,10.00000096,293.125000
97,5041.25000097,-38.12500097,293.125000
98,5041.25000098,-38.12500098,293.125000
99,5041.25000099,-38.12500099,293.125000
100,5041.250000100,-38.125000100,293.125000
101,5041.250000101,-38.125000101,293.125000
102,5041.250000102,-38.125000102,293.125000
103,5041.250000103,-38.125000103,283.500000
104,5041.250000104,10.000000104,293.125000
105,5041.250000105,-38.125000105,293.125000
106,5041.250000106,10.000000106,283.500000
107,5041.250000107,-38.125000107,293.125000
108,5041.250000108,-38.125000108,293.125000
109,5041.250000109,-38.125000109,293.125000
110,5041.250000110,10.000000110,293.125000
111,5041.250000111,-38.125000111,293.125000
112,5041.250000112,10.000000112,293.125000
113,5041.250000113,-38.125000113,293.125000
114,5041.250000114,-38.125000114,293.125000
115,5041.250000115,-38.125000115,293.125000
116,5041.250000116,-38.125000116,293.125000
117,5041.250000117,-38.125000117,293.125000
118,5041.250000118,-38.125000118,293.125000
119,5041.250000119,-38.125000119,293.125000
120,5041.250000120,-38.125000120,283.500000
121,5041.250000121,-38.125000121,293.125000
122,5041.250000122,-38.125000122,293.125000
123,5041.250000123,-38.125000123,293.125000
124,5041.250000124,-38.125000124,293.125000
125,5041.250000125,-38.125000125,293.125000
126,5041.250000126,-38.125000126,293.125000
127,5041.250000127,-38.125000127,283.500000
128,5041.250000128,-38.125000128,293.125000
129,5041.250000129,-38.125000129,293.125000
130,5041.250000130,10.000000130,293.125000
131,5041.250000131,-38.125000131,293.125000
132,5041.250000132,10.000000132,293.125000
133,5041.250000133,-38.125000133,283.500000
134,5041.250000134,-38.125000134,293.125000
135,5041.250000135,-38.125000135,283.500000
136,5041.250000136,-38.125000136,293.125000
137,5137.500000137,-38.125000137,293.125000
138,5041.250000138,-38.125000138,293.125000
139,5041.250000139,-38.125000139,283.500000
140,5041.250000140,-38.125000140,293.125000
141,5041.250000141,-38.125000141,283.500000
142,5041.250000142,10.000000142,293.125000
143,5041.250000143,-38.125000143,283.500000
144,5041.250000144,10.000000144,293.125000
145,5041.250000145,-38.125000145,293.125000
146,5041.250000146,-38.125000146,293.125000
147,5041.250000147,-38.125000147,293.125000
148,5041.250000148,10.000000148,293.125000
149,5041.250000149,-38.125000149,293.125000
150,5137.500000150,10.000000150,293.125000
151,5041.250000151,-38.125000151,293.125000
152,5041.250000152,-38.125000152,293.125000
153,5041.250000153,-38.125000153,293.125000
154,5041.250000154,10.000000154,293.125000
155,5041.250000155,-38.125000155,293.125000
156,5041.250000156,-38.125000156,293.125000
157,5041.250000157,-38.125000157,293.125000
158,5137.500000158,10.000000158,293.125000
159,5041.250000159,-38.125000159,293.125000
160,5041.250000160,-38.125000160,293.125000
161,5041.250000161,-38.125000161,293.125000
162,5041.250000162,-38.125000162,293.125000
163,5041.250000163,-38.125000163,293.125000
164,5041.250000164,-38.125000164,293.125000
165,5041.250000165,-38.125000165,293.125000
166,5041.250000166,-38.125000166,293.125000
167,5041.250000167,-38.125000167,293.125000
168,5041.250000168,10.000000168,293.125000
169,5041.250000169,-38.125000169,293.125000
170,5041.250000170,-38.125000170,293.125000
171,5041.250000171,-38.125000171,293.125000
172,5041.250000172,-38.125000172,293.125000
173,5137.500000173,-38.125000173,293.125000
174,5041.250000174,-38.125000174,293.125000
175,5041.250000175,-38.125000175,293.125000
176,5041.250000176,-38.125000176,293.125000
177,5041.250000177,-38.125000177,293.125000
178,5041.250000178,10.000000178,293.125000
179,5041.250000179,-38.125000179,293.125000
180,5041.250000180,-38.125000180,293.125000
181,5041.250000181,-38.125000181,293.125000
182,5041.250000182,10.000000182,293.125000
183,5041.250000183,-38.125000183,293.125000
184,5041.250000184,10.000000184,293.125000
185,5041.250000185,-38.125000185,283.500000
186,5041.250000186,-38.125000186,293.125000
187,5041.250000187,-38.125000187,293.125000
188,5041.250000188,-38.125000188,293.125000
189,5041.250000189,-38.125000189,283.500000
190,5041.250000190,-38.125000190,293.125000
191,5041.250000191,-38.125000191,283.500000
192,5041.250000192,10.000000192,293.125000
193,5041.250000193,-38.125000193,293.125000
194,5041.250000194,10.000000194,293.125000
195,5041.250000195,-38.125000195,293.125000
196,5041.250000196,-38.125000196,293.125000
197,5041.250000197,-38.125000197,293.125000
198,5041.250000198,10.000000198,293.125000
199,5041.250000199,-38.125000199,293.125000
200,5041.250000200,-38.125000200,293.125000
201,5041.250000201,-38.125000201,293.125000
202,5041.250000202,-38.125000202,293.125000
203,5041.250000203,-38.125000203,293.125000
204,5041.250000204,-38.125000204,293.125000
205,5041.250000205,-38.125000205,293.125000
206,5041.250000206,-38.125000206,293.125000
207,5041.250000207,-38.125000207,293.125000
208,5041.250000208,10.000000208,293.125000
209,5041.250000209,-38.125000209,293.125000
210,5041.250000210,10.000000210,293.125000
211,5041.250000211,-38.125000211,293.125000
212,5041.250000212,-38.125000212,293.125000
213,5041.250000213,-38.125000213,293.125000
214,5041.250000214,10.000000214,293.125000
215,5041.250000215,-38.125000215,283.500000
216,5041.250000216,-38.125000216,293.125000
217,5041.250000217,-38.125000217,293.125000
218,5041.250000218,-38.125000218,293.125000
219,5041.250000219,-38.125000219,293.125000
220,5041.250000220,-38.125000220,293.125000
221,5041.250000221,-38.125000221,293.125000
222,5041.250000222,-38.125000222,293.125000
223,5041.250000223,-38.125000223,293.125000
224,5041.250000224,10.000000224,283.500000
225,5041.250000225,-38.125000225,293.125000
226,5041.250000226,-38.125000226,283.500000
227,5137.500000227,-38.125000227,293.125000
228,5041.250000228,-38.125000228,293.125000
229,5041.250000229,-38.125000229,293.125000
230,5041.250000230,-38.125000230,293.125000
231,5041.250000231,-38.125000231,283.500000
232,5137.500000232,10.000000232,283.500000
233,5041.250000233,-38.125000233,293.125000
234,5041.250000234,-38.125000234,293.125000
235,5041.250000235,-38.125000235,293.125000
236,5137.500000236,-38.125000236,293.125000
237,5041.250000237,-38.125000237,293.125000
238,5137.500000238,10.000000238,293.125000
239,5041.250000239,-38.125000239,283.500000
240,5041.250000240,10.000000240,293.125000
241,5041.250000241,-38.125000241,293.125000
242,5041.250000242,-38.125000242,293.125000
243,5041.250000243,-38.125000243,293.125000
244,5041.250000244,-38.125000244,293.125000
245,5041.250000245,-38.125000245,293.125000
246,5041.250000246,-38.125000246,293.125000
247,5041.250000247,-38.125000247,283.500000
248,5041.250000248,-38.125000248,293.125000
249,5041.250000249,10.000000249,283.500000
250,5041.250000250,-38.125000250,293.125000
251,5041.250000251,-38.125000251,293.125000
252,5041.250000252,-38.125000252,293.125000
253,5041.250000253,-38.125000253,293.125000
254,5041.250000254,-38.125000254,293.125000
255,5041.250000255,-38.125000255,283.500000
256,5041.250000256,-38.125000256,293.125000
257,5041.250000257,-38.125000257,293.125000
258,5041.250000258,-38.125000258,293.125000
259,5041.250000259,-38.125000259,293.125000
260,5041.250000260,-38.125000260,293.125000
261,5041.250000261,-38.125000261,293.125000
262,5041.250000262,10.000000262,293.125000
263,5041.250000263,-38.125000263,293.125000
264,5041.250000264,-38.125000264,283.500000
265,5041.250000265,-38.125000265,293.125000
266,5041.250000266,10.000000266,293.125000
267,5041.250000267,-38.125000267,293.125000
268,5041.250000268,-38.125000268,293.125000
269,5041.250000269,-38.125000269,293.125000
270,5041.250000270,10.000000270,293.125000
271,5041.250000271,-38.125000271,283.500000
272,5041.250000272,10.000000272,293.125000
273,5041.250000273,-38.125000273,293.125000
274,5041.250000274,-38.125000274,293.125000
275,5041.250000275,-38.125000275,293.125000
276,5041.250000276,-38.125000276,293.125000
277,5041.250000277,-38.125000277,293.125000
278,5041.250000278,10.000000278,293.125000
279,5041.250000279,-38.125000279,293.125000
280,5041.250000280,-38.125000280,293.125000
281,5041.250000281,10.000000281,293.125000
282,5041.250000282,-38.125000282,283.500000
283,5041.250000283,-38.125000283,293.125000
284,5041.250000284,-38.125000284,293.125000
285,5041.250000285,-38.125000285,293.125000
286,5041.250000286,10.000000286,293.125000
287,5041.250000287,-38.125000287,293.125000
288,5137.500000288,10.000000288,293.125000
289,5041.250000289,-38.125000289,293.125000
290,5041.250000290,-38.125000290,293.125000
291,5041.250000291,-38.125000291,293.125000
292,5041.250000292,-38.125000292,293.125000
293,5041.250000293,-38.125000293,293.125000
294,5041.250000294,-38.125000294,293.125000
295,5041.250000295,-38.125000295,293.125000
296,5041.250000296,10.000000296,293.125000
297,5041.250000297,-38.125000297,293.125000
298,5041.250000298,-38.125000298,293.125000
299,5041.250000299,-38.125000299,293.125000
300,5041.250000300,10.000000300,293.125000
301,5041.250000301,-38.125000301,293.125000
302,5041.250000302,10.000000302,293.125000
303,5041.250000303,-38.125000303,293.125000
304,5041.250000304,-38.125000304,293.125000
305,5041.250000305,-38.125000305,293.125000
306,5041.250000306,-38.125000306,293.125000
307,5041.250000307,-38.125000307,293.125000
308,5041.250000308,-38.125000308,293.125000
309,5041.250000309,-38.125000309,293.125000
310,5041.250000310,10.000000310,293.125000
311,5041.250000311,-38.125000311,293.125000
312,5041.250000312,-38.125000312,283.500000
313,5041.250000313,-38.125000313,293.125000
314,5041.250000314,10.000000314,293.125000
315,5041.250000315,-38.125000315,293.125000
316,5041.250000316,-38.125000316,293.125000
317,5041.250000317,-38.125000317,293.125000
318,5041.250000318,-38.125000318,293.125000
319,5041.250000319,-38.125000319,293.125000
320,5041.250000320,-38.125000320,293.125000
321,5041.250000321,-38.125000321,293.125000
322,5041.250000322,10.000000322,293.125000
323,5041.250000323,-38.125000323,293.125000
324,5041.250000324,-38.125000324,293.125000
325,5041.250000325,-38.125000325,293.125000
326,5041.250000326,10.000000326,293.125000
327,5041.250000327,-38.125000327,293.125000
328,5041.250000328,10.000000328,293.125000
329,5041.250000329,-38.125000329,293.125000
330,5041.250000330,-38.125000330,293.125000
331,5041.250000331,-38.125000331,293.125000
332,5041.250000332,-38.125000332,293.125000
333,5041.250000333,-38.125000333,293.125000
334,5041.250000334,10.000000334,293.125000
335,5041.250000335,-38.125000335,293.125000
336,5041.250000336,-38.125000336,293.125000
337,5041.250000337,-38.125000337,293.125000
338,5041.250000338,10.000000338,293.125000
339,5041.250000339,-38.125000339,293.125000
340,5137.500000340,-38.125000340,293.125000
341,5041.250000341,-38.125000341,293.125000
342,5041.250000342,-38.125000342,293.125000
343,5041.250000343,-38.125000343,283.500000
344,5041.250000344,10.000000344,293.125000
345,5041.250000345,-38.125000345,293.125000
346,5041.250000346,10.000000346,293.125000
347,5041.250000347,-38.125000347,293.125000
348,5041.250000348,-38.125000348,293.125000
349,5041.250000349,-38.125000349,293.125000
350,5041.250000350,10.000000350,293.125000
351,5041.250000351,-38.125000351,283.500000
352,5041.250000352,10.000000352,293.125000
353,5041.250000353,-38.125000353,283.500000
354,5041.250000354,10.000000354,293.125000
355,5041.250000355,-38.125000355,293.125000
356,5041.250000356,-38.125000356,293.125000
357,5041.250000357,-38.125000357,293.125000
358,5041.250000358,10.000000358,293.125000
359,5041.250000359,-38.125000359,283.500000
360,5041.250000360,10.000000360,293.125000
361,5041.250000361,-38.125000361,293.125000
362,5041.250000362,-38.125000362,293.125000
363,5041.250000363,-38.125000363,293.125000
364,5041.250000364,-38.125000364,293.125000
365,5041.250000365,-38.125000365,293.125000
366,5041.250000366,10.000000366,293.125000
367,5041.250000367,-38.125000367,293.125000
368,5041.250000368,-38.125000368,293.125000
369,5041.250000369,-38.125000369,293.125000
370,5041.250000370,10.000000370,293.125000
371,5041.250000371,-38.125000371,293.125000
372,5041.250000372,-38.125000372,293.125000
373,5137.500000373,-38.125000373,293.125000
374,5041.250000374,-38.125000374,293.125000
375,5041.250000375,-38.125000375,293.125000
376,5041.250000376,10.000000376,293.125000
377,5041.250000377,-38.125000377,293.125000
378,5041.250000378,10.000000378,293.125000
379,5041.250000379,-38.125000379,293.125000
380,5041.250000380,-38.125000380,293.125000
381,5041.250000381,-38.125000381,283.500000
382,5041.250000382,10.000000382,293.125000
383,5041.250000383,-38.125000383,293.125000
384,5041.250000384,10.000000384,283.500000
385,5041.250000385,-38.125000385,293.125000
386,5041.250000386,10.000000386,293.125000
387,5041.250000387,-38.125000387,283.500000
388,5041.250000388,-38.125000388,293.125000
389,5041.250000389,-38.125000389,293.125000
390,5041.250000390,10.000000390,293.125000
391,5041.250000391,-38.125000391,283.500000
392,5041.250000392,-38.125000392,293.125000
393,5041.250000393,-38.125000393,293.125000
394,5041.250000394,10.000000394,293.125000
395,5041.250000395,-38.125000395,293.125000
396,5041.250000396,-38.125000396,293.125000
397,5137.500000397,-38.125000397,293.125000
398,5041.250000398,-38.125000398,293.125000
399,5041.250000399,-38.125000399,293.125000
400,5041.250000400,-38.125000400,293.125000
401,5041.250000401,-38.125000401,293.125000
402,5041.250000402,-38.125000402,293.125000
403,5041.250000403,-38.125000403,293.125000
404,5041.250000404,-38.125000404,283.500000
405,5041.250000405,-38.125000405,293.125000
406,5041.250000406,-38.125000406,293.125000
407,5041.250000407,-38.125000407,283.500000
408,5041.250000408,-38.125000408,293.125000
409,5041.250000409,-38.125000409,293.125000
410,5041.250000410,10.000000410,293.125000
411,5041.250000411,-38.125000411,293.125000
412,5041.250000412,10.000000412,293.125000
413,5041.250000413,-38.125000413,293.125000
414,5041.250000414,10.000000414,293.125000
415,5041.250000415,-38.125000415,293.125000
416,5041.250000416,10.000000416,293.125000
417,5137.500000417,-38.125000417,293.125000
418,5041.250000418,10.000000418,293.125000
419,5041.250000419,-38.125000419,293.125000
420,5041.250000420,-38.125000420,293.125000
421,5041.250000421,-38.125000421,283.500000
422,5041.250000422,10.000000422,293.125000
423,5041.250000423,-38.125000423,283.500000
424,5041.250000424,-38.125000424,293.125000
425,5041.250000425,-38.125000425,293.125000
426,5041.250000426,10.000000426,293.125000
427,5041.250000427,-38.125000427,293.125000
428,5041.250000428,-38.125000428,283.500000
429,5041.250000429,-38.125000429,293.125000
430,5041.250000430,10.000000430,293.125000
431,5041.250000431,-38.125000431,283.500000
432,5041.250000432,10.000000432,293.125000
433,5041.250000433,-38.125000433,293.125000
434,5041.250000434,10.000000434,293.125000
435,5041.250000435,-38.125000435,283.500000
436,5041.250000436,-38.125000436,293.125000
437,5041.250000437,-38.125000437,293.125000
438,5041.250000438,10.000000438,293.125000
439,5041.250000439,-38.125000439,283.500000
440,5041.250000440,-38.125000440,293.125000
441,5041.250000441,-38.125000441,283.500000
442,5041.250000442,-38.125000442,293.125000
443,5041.250000443,-38.125000443,283.500000
444,5041.250000444,10.000000444,293.125000
445,5041.250000445,-38.125000445,293.125000
446,5041.250000446,10.000000446,293.125000
447,5041.250000447,-38.125000447,283.500000
448,5041.250000448,-38.125000448,293.125000
449,5041.250000449,-38.125000449,293.125000
450,5137.500000450,-38.125000450,293.125000
451,5041.250000451,-38.125000451,293.125000
452,5041.250000452,-38.125000452,293.125000
453,5041.250000453,-38.125000453,293.125000
